// 10114
//== TSPE, Constrained Cognition, Pt 8
== Розділ 58. СТЕ, Обмежене мислення, ч.8

// 10115
//A/N: A movie trailer for __Army of Darkness,__ resembling the one Harry
//saw, is THV1KkPXIxQ on YouTube.
Примітка автора: уривок фільму "`Армія Темряви`", що Гаррі бачив у трейлері,
можна побачити на YouTube за ключем KrSHPsiU6cg.

// 10116
//The key quote is as follows, spoken by a man of modern times to listeners from
//the Middle Ages:
Ключова цитата (вимовляє сучасна людина, що переміщується в часі у середньовіччя,
розмахує рушницею):

// 10117
//“All right you primitive screwheads! Listen up! You see this? This… is my
//__boomstick!__”
"`Ви, придуркуваті голови! Слухайте сюди! Бачите це? Це... моя __чарівна
паличка__!`"

***

// 10118
//In darkness absolute, a boy stood holding his wand to the solid metal wall of
//Azkaban, essaying a magic that only three other people in the world would have
//believed possible, and that none save he alone could wield.
В абсолютній темряві стояв хлопець. Він притиснув чарівну паличку до металевої
стіни Азкабану та випробовував магію, що в неї лише три людини могли повірити,
і лише він один нею володів.

// 10119
//Of course a powerful wizard could’ve cut through the wall in seconds, with a
//gesture and a word.
Звісно, могутній чарівник міг би прорубати стіну протягом секунди -- одним жестом
та словом.

// 10120
//For an average adult it might have been a matter of a few minutes’ work, and
//afterward they would have been winded.
Пересічному дорослому довелося б попрацювати кілька хвилин, і після він
відчував би втому.

// 10121
//But to accomplish the same end as a first-year Hogwarts student, you had to be
//__efficient.__
Та щоб досягти того ж результату, доки ти першокласник Гоґвортсу, треба діяти
__ефективно__.

// 10122
//Luckily - well, not __luckily__, luck had nothing to do with it -
//__conscientiously__, Harry had practiced Transfiguration for an extra hour
//every day, to the point where he was ahead of even Hermione in that one class;
//he’d practiced partial Transfiguration to the point where his thoughts had
//begun taking the true universe for granted, so that it required only slightly
//more effort to keep its timeless quantum nature in mind, even as he kept a firm
//mental separation between the concept of Form and the concept of substance.
На щастя -- ну, не __на щастя__, удача не мала до цього жодного стосунку, --
__через свідоме рішення__ Гаррі щодня приділяв вправам з трансфігурації
додаткову годину, він навіть у цьому єдиному предметі був попереду Герміони.
Він вправлявся у частковій трансфігурації так довго, що почав подумки сприймати
справжній устрій Всесвіту як щось буденне, йому треба було лише трохи більше
зусиль на те, щоб тримати в розумі його безчасову квантову природу, навіть
зосередившись водночас на чіткому ментальному розділенні між концепцією форми
та концепцією матеріалу.

// 10123
//And the __problem__ with that art having become so routine…
А __недоліком__ того, що це мистецтво стало для нього рутиною...

// 10124
//…was that Harry could think about other things while he was doing it.
...була здатність Гаррі розмірковувати про інше, доки застосовував його.

// 10125
//Somehow his thoughts had managed to not go there, to not confront the obvious,
//until he was faced with the prospect of __really actually doing it in
//just a few minutes__.
Якимось чином йому це не спадало було на думку, він не бачив очевидного, аж
доки не зʼявилася перспектива __справді дійсно зробити це лише за кілька
хвилин__.

// 10126
//What Harry was about to do…
Те, що Гаррі збирався зробити...

// 10127
//…was dangerous.
...було небезпечним.

// 10128
//Really dangerous.
Справді небезпечним.

// 10129
//Someone-might-actually-genuinely-get-killed dangerous.
Небезпечним рівня хтось-справді-чесно-може-загинути.

// 10130
//Facing down twelve Dementors without a Patronus Charm had been __scary,__
//but merely scary. Harry could have cast the Patronus Charm, __would__ have
//cast it as soon as he thought he was in danger of not being able to do so, as
//soon as he felt his resistance beginning to fail. And even if that hadn’t
//worked… even so, unless the Dementors had been instructed to Kiss anyone they
//found, failure shouldn’t have been __fatal.__
Зустрітися віч на віч із дюжиною дементорів без патронуса було __страшно__,
але лише страшно. Гаррі міг би викликати чари патронуса, і __зробив би__ це,
щойно йому б здалося, що він втрачає таку можливість, чи коли він відчув би,
що не може більше чинити опір. І навіть якби це не спрацювало... навіть тоді,
хіба що дементорам було наказано Цілувати всіх, кого вони знайдуть, невдача
не була б __фатальною__.

// 10131
//This was different.
Тут усе було інакше.

// 10132
//The Transfigured Muggle device could explode and kill them.
Трансфігурований маґлівський пристрій міг вибухнути та вбити їх.

// 10133
//The interface between the technology and the magic could fail in any number of
//ways and kill them.
Інтерфейс між технологією та магією міг вийти з ладу різноманітними способами
та вбити їх.

// 10134
//The Aurors could get in a lucky shot.
Аврорам могло пощастити, і вони могли влучити.

// 10135
//It was just, well…
Це було просто, ну...

// 10136
//__Seriously__ dangerous.
__Всерйоз__ небезпечно.

// 10137
//Harry had caught his mind trying to argue itself into believing that it was
//safe.
Гаррі помітив, що намагається вмовити себе повірити в те, що це безпечно.

// 10138
//And sure, the whole thing __could__ work, but…
І справді, усе __могло__ вийти, проте...

// 10139
//But even leaving out that rationalists weren’t ever allowed to argue themselves
//into things, Harry knew he couldn’t possibly have argued himself into
//estimating less than a 20// probability of dying.
Навіть якщо забути про те, що раціоналістам не можна вмовляти себе, Гаррі знав, що
аж ніяк не впорається вмовити себе, що ймовірність померти від цієї спроби менша
за 20%.

// 10140
//__Lose,__ said Hufflepuff.
__Програй,__ сказав гафелпафець.

// 10141
//__Lose__, said the voice of Professor Quirrell in his mind.
__Програй,__ сказав голос професора Квірела в його розумі.

// 10142
//__Lose,__ said his mental model of Hermione and Professor McGonagall and
//Professor Flitwick and Neville Longbottom and, well, basically everyone Harry
//knew except for Fred and George, who would have gone for it in a hot second.
__Програй,__ вимовили ментальні моделі Герміони, професорки Макґонеґел, професора
Флитвіка, Невіла Лонґботома і, ну, фактично всіх, кого Гаррі знав, крім Фреда
та Джорджа -- вони б миттю погодилися на цей план.

// 10143
//He should just go find Dumbledore and turn himself in. He should, he really
//really should, it was the only __sane__ thing to do at this point.
Треба просто піти знайти Дамблдора й у всьому зізнатися. Це треба зробити,
справді треба, тепер лише цей вчинок був __розумним__.

// 10144
//And if it’d been only Harry on the mission, only his own life that’d been at
//stake, he would have; he surely would have.
І якби в цій місії брав участь лише Гаррі, якби від цього залежало лише його
життя, він так би й вчинив. Безсумнівно.

// 10145
//The part that was almost causing him to lose his concentration on the partial
//Transfiguration he was performing, the part that was threatening to open him to
//the Dementors…
Найбільше заважав зосередитися на поточній частковій трансфігурації, і навіть
загрожував відкрити його дементорам...

// 10146
//…was Professor Quirrell, still unconscious, still a snake.
...досі непритомний, досі у подоби змі{stress}я, професор Квірел.

// 10147
//If Professor Quirrell went to Azkaban for his part in the escape, he would die.
//He probably wouldn’t last even a week. He was that sensitive.
Якщо професор Квірел потрапить в Азкабан за свою участь у втечі, то він помре.
Він напевно не протягне й тижня. Він був настільки чутливим.

// 10148
//It was that simple.
Ось так все просто.

// 10149
//If Harry __lost__ here…
Якщо Гаррі __програє__...

// 10150
//He lost Professor Quirrell.
То втратить професора Квірела.

// 10151
//__Even though he’s probably evil,__ said the Hufflepuff part of him
//quietly. __Even so?__
__І нехай він напевно лихий__, тихо запитала його гафелпафська
частина. __Усе одно?__

// 10152
//It wasn’t a decision that Harry had made in any conscious way. He just couldn’t
//do it. Losing was for House points, not __people.__
Це рішення Гаррі приймав аж ніяк не свідомо. Він просто не міг цього зробити.
Програвати можна було очки гуртожитків, але не __людей__.

// 10153
//__If you think your own life is valuable enough that you’re not willing
//to take on an eighty percent probability of dying in order to protect all the
//prisoners in Azkaban,__ his Slytherin side observed, __there’s no way you
//can justify taking a twenty percent risk to your life to save Bellatrix and
//Professor Quirrell. The math doesn’t add up, you can’t be assigning consistent
//utilities over outcomes here.__
__Якщо ти вважаєш, що твоє життя достатньо цінне, щоб не ризикувати ним на
вісімдесят відсотків, щоб захистити всіх вʼязнів Азкабану__, прокоментувала
його слизеринська частина, __то ти ніяк не можеш виправдати, що ризикуєш життям
на двадцять відсотків заради порятунку життя Белатриси та професора Квірела.
Тут явно якісь проблеми з математикою, ти явно призначаєш неузгоджену вартість
результатам.__

// 10154
//The logical side of him noted that Slytherin had just won the argument.
Логічна його частина зазначила, що слизеринець щойно довів, що має рацію.

// 10155
//Harry kept the Form in his mind, kept on casting the spell. He could always
//just abort the mission when he was __done__ with the Transfiguration, he
//didn’t want to lose the effort he’d already invested.
Гаррі тримав у розумі форму, продовжував накладати закляття. Він завжди міг
скасувати місію, навіть якщо __завершить__ трансфігурацію, і він не хотів
марнувати вже витрачених зусиль.

// 10156
//And then Harry thought of something else that suddenly made it very hard to
//keep the magic going, very hard to keep up his resistance to the Dementors.
А тоді Гаррі спало на думку ще дещо, і раптом йому стало дуже важко не
перервати закляття, і дуже важко не втратити стійкість перед дементорами.

// 10157
//__What if the portkey doesn’t take us where Professor Quirrell said it
//did?__
__А що як летиключ перенесе нас не туди, куди стверджував професор Квірел?__

// 10158
//It was obvious in retrospect the moment he thought about it.
У ретроспективі це було очевидно.

// 10159
//Even if the planned escape went completely right, even if the Muggle device
//worked and __didn’t__ explode and __didn’t__ interact badly with the
//mated magic item, even if the Aurors didn’t get in a lucky shot, even if Harry
//made it far enough away from Azkaban to use the portkey…
Навіть якщо запланована втеча пройде абсолютно успішно, навіть якщо маґлівський
пристрій працюватиме і __не__ вибухне, і __не__ виникне непередбачуваних
ефектів від його взаємодії з магічним предметом, навіть якщо аврори не влучать,
навіть якщо Гаррі відлетить достатньо далеко від Азкабану, щоб скористатися
летиключем...

// 10160
//…there might not be a psychiatric healer at the end of it.
...після переміщення їх може чекати не психічний цілитель.

// 10161
//That was something Harry had believed when he’d trusted Professor Quirrell, and
//he’d forgotten to re-evaluate it after Professor Quirrell was no longer to be
//trusted.
Гаррі вірив був у це, коли ще довіряв професорові Квірелу, і він забув
перерозглянути цей погляд після того, як виявилося, що довіряти професорові
Квірелу не можна.

// 10162
//__You can’t do this,__ said Hufflepuff. __ At this point we’re
//talking mere stupidity.__
__У тебе не вийде__, сказав гафелпафець. __Мова йде вже просто про якусь
дурість.__

// 10163
//Cold seemed to spread through the room, but Harry kept the Transfiguration
//going, even as his resistance against the Dementors faltered.
У кімнаті ніби похолоднішало, проте Гаррі не зупиняв трансфігурацію, незважаючи
на те, що його спротив дементорам похитнувся.

// 10164
//__I can’t lose Professor Quirrell.__
__Я не можу втратити професора Квірела.__

// 10165
//__He tried to kill a police officer,__ said Hufflepuff. __You
//already lost him, in that moment. Bellatrix is probably just what everyone
//thinks she is. Just take your Cloak back, go find Dumbledore and tell him you
//were tricked.__
__Він намагався вбити поліцейського офіцера__, сказав гафелпафець. __Ти вже
втратив його -- у ту мить. Белатриса напевно саме така, як і вважають усі.
Просто забери назад свій Плащ, знайди Дамблдора та скажи йому, що тебе
обдурили.__

// 10166
//__No,__ thought Harry desperately, __not without talking to
//Professor Quirrell, there might be an explanation, I don’t know, maybe he was
//standing far enough away from my Patronus that the Dementors got to him… I
//don’t understand, it doesn’t make sense on any hypothesis, why he would do
//that… I can’t just…__
__Ні__, відчайдушно подумав Гаррі, __спочатку я маю поговорити з професором
Квірелом, можливо є пояснення, ну хтозна, може він стояв надто далеко від мого
патронуса, і на нього подіяли дементори... я не розумію, це було безґлуздо за
всіма моїми гіпотезами, чому він зробив це... я не можу просто...__

// 10167
//____

// 10168
//Harry turned his mind away from that chain of thought before it completely
//broke his resistance to the fear, because he couldn’t think of feeding
//Professor Quirrell to Dementors while staying resolved against Death, it was a
//cognitive impossibility.
Гаррі обірвав цей ланцюжок своїх думок, доки не втратив свою стійкість перед
страхом, -- він не міг думати про те, щоб згодувати професора Квірела дементорам,
і бути рішуче налаштованим проти смерті водночас -- це було неможливо з
позицій раціональності.

// 10169
//__Your reasoning is artificially impaired,__ observed the logical part of
//him calmly, __find a way to unimpair it.__
__Твоє мислення штучно зіпсоване__, спокійно зазначила його логічна частина,
__знайди спосіб полагодити його.__

// 10170
//__All right, let’s just generate alternatives,__ Harry thought.__
//Not choose, not weigh, certainly not commit… just think about what else I might
//be able to do besides the original plan.__
__Гаразд, генеруймо варіанти__, подумав Гаррі. __Не вибираємо, не оцінюємо,
точно не вирішуємо нічого... просто розмірковуємо, що ще я можу зробити, крім
оригінального плану.__

// 10171
//And Harry went on cutting the hole in the wall. He was using partial
//Transfiguration on a thin cylindrical shell of metal, two meters in diameter
//and half a millimeter thick, running all the way through the wall. He was
//Transfiguring that half-millimeter thickness of metal into motor oil. Motor oil
//was a liquid and you weren’t to Transfigure liquids because they might
//evaporate, but he and Bellatrix and the snake all had Bubble-Head Charms. And
//Harry would cast Finite on the oil immediately after, dispelling his own
//Transfiguration…
І Гаррі продовжив прорізати отвір у стіні. Він застосовував часткову
трансфігурацію на тонкій циліндричній оболонці металу: два метри в діаметрі,
півміліметра завтовшки, довжиною від себе й до кінця стіни. Він перетворював
півміліметра товщини металу на моторну оливу. Моторна олива була рідиною, і не
можна було трансфігурувати на рідину, бо вона випаровується, проте він,
Белатриса та змій були під дією бульбашкоголових чарів. І Гаррі застосує
"`Фініте`" на оливі одразу після -- розвіє свою трансфігурацію...

// 10172
//…as soon as the separated and lubricated hunk of metal slid out of the wall and
//onto the floor of their cell, he’d slanted it so gravity would pull it in, once
//the Transfiguration was done.
...щойно відділений та змащений шмат металу зісковзне зі стіни на підлогу камери
-- він нахилив циліндр так, щоб гравітація втягла його, коли трансфігурацію буде
завершено.

// 10173
//If Harry and Bellatrix __didn’t__ exit on his broomstick through the
//resulting hole in the wall…
Якщо Гаррі з Белатрисою __не__ вилетять на його мітлі крізь створений отвір
у стіні...

// 10174
//Harry’s brain suggested that he could try to Transfigure a surface cover over
//the hole in the wall, leaving a space for Bellatrix and Professor Quirrell to
//hide in, wearing the Cloak, while Harry turned himself in. And Professor
//Quirrell would eventually wake up, and he and Bellatrix could try to figure out
//how to exit Azkaban on their own.
Мозок Гаррі запропонував спробувати трансфігурувати поверхню, що прикриє діру в
стіні, залишити місце для Белатриси й професора Квірела, де можна сховатися під
Плащем, а сам Гаррі здасться. Коли професор Квірел прокинеться, вони з Белатрисою
спробують самостійно вигадати, як втекти з Азкабану.

// 10175
//It was, first of all, a dumb idea, and second, there would still be a huge hunk
//of metal on the floor of the cell, which would give it away.
Це, по-перше, була тупа ідея, а по-друге, на підлозі камери буде валятися
величезний шматок металу -- це їх видасть.

// 10176
//And then Harry’s brain saw the obvious.
А тоді мозок Гаррі побачив очевидне.

// 10177
//__Let Bellatrix and Professor Quirrell use the escape route you invented.
//You stay behind, and turn yourself in.__
__Нехай Белатриса й професор Квірел використають твій план втечі. А сам
залишайся і здавайся.__

// 10178
//Bellatrix and Professor Quirrell were the ones whose lives were at stake.
Під загрозою було життя саме Белатриси й професора Квірела.

// 10179
//They were gaining, not losing, from taking the risk.
Вони вигравали, а не програвали від цього ризикованого плану.

// 10180
//And there was no reason, no sane reason at all, for Harry to go with them.
І не було жодної причини, взагалі жодного розумного аргументу, щоб Гаррі пішов
би з ними.

// 10181
//A calm came over Harry as he thought it, the cold and darkness that had been
//wavering around the fringes of his mind retreated. Yes, that was it, that was
//the creative outside-the-box route, that was the hidden third alternative. The
//falseness of the dilemma was obvious in retrospect. If Harry turned himself in,
//he __didn’t__ have to turn in Bellatrix and Professor Quirrell. If
//Bellatrix and Professor Quirrell took a dangerous escape route, Harry
//__didn’t__ need to go with them.
Спокій сповнив Гаррі, коли він подумав про це, холод та темрява, що хвилями
накочувалися на межі його розуму відступили. Так, це було воно -- нешаблонне
мислення, прихований третій варіант. Хибність дилеми була очевидна в
ретроспективі. Якщо Гаррі здавався, він __не мав__ також здавати Белатрису й
професора Квірела. Якщо Белатриса й професор Квірел виберуть небезпечний шлях,
Гаррі __не мав__ іти з ними.

// 10182
//Harry didn’t even need to face the embarrassment of admitting he’d been
//tricked, if he ordered Bellatrix to remove the memory. Everyone would just
//assume he’d been kidnapped, including Harry himself. Admittedly, there was no
//plausible reason why the Dark Lord would ever ask Bellatrix to do that; but
//Harry could simply smile and tell Bellatrix she wasn’t allowed to know, and
//that would be that…
Гаррі навіть не треба буде принижуватися й зізнаватися в тому, що його
обдурили, якщо він накаже Белатрисі стерти йому памʼять. Всі -- включно з Гаррі
-- просто вирішать, що його викрали. Треба визнати, що не існувало
правдоподібної причини, чому б Темний Лорд міг наказати Белатрисі зробити це.
Але Гаррі міг просто посміхнутися й сказати Белатрисі, що їй не можна знати,
ось і все...

***

// 10183
//Her Auror team had gotten around three-quarters of the way down Azkaban, as had
//the other two teams on the other two spirals. Amelia was feeling tenser
//already, though she was betting on the criminals hiding on the second-to-lowest
//floor, part of her wished Dumbledore had thought to check that specific floor
//more carefully and part of her was glad he hadn’t.
Її команда аврорів вже спустилася на три чверті Азкабану, як і інші дві команди
в інших двох спіралях. Амелія вже напружилася, готова до бою, хоча вона гадала,
що злочинці ховаються на другому знизу рівні. Почасти їй хотілося, щоб Дамблдор
перевірив був цей поверх старанніше, а почасти вона раділа, що він цього не
зробив.

// 10184
//And then there was a distant sound, like a tiny ‘tink’ noise coming from far
//away. Like a very loud sound coming from the second-to-lowest floor, say.
А потім пролунав далекий звук, ніби тихе "`дзінь`" надійшло з великої відстані.
Ніби десь, скажімо, на другому поверсі, виник дуже гучний звук.

// 10185
//Amelia looked at Dumbledore before she realized, before she managed to stop
//herself.
Амелія не встигла стриматися й несвідомо поглянула на Дамблдора.

// 10186
//The old wizard shrugged, gave her a small smile, said, “Since you asked it,
//Amelia,” and went off yet again.
Старий чарівник знизав плечима, злегка їй усміхнувся і сказав:

-- Ну якщо ти просиш, Амеліє.

І знову пішов.

***

// 10187
//“__Finite Incantatem,”__ Harry said to the oil coating the giant chunk of
//metal on the floor. He hardly heard himself speak, his ears were still ringing
//from the gigantic thud of the solid metal sliding out of the wall and falling.
//(He should have put up a Quieting Charm, in retrospect, though that wouldn’t
//have stopped the noise from spreading through the solid metal floor.) And then
//Harry said it again, “__Finite Incantatem__” to the oil coating the
//two-meter hole in the wall, spreading the effect wide; it was his own magic
//Harry was canceling, which made the spell almost effortless. Harry was feeling
//a bit tired now, but that was the last use of magic he would need. He hadn’t
//even __needed__ to do it, really, but Harry didn’t want to leave
//Transfigured liquid lying around, and he didn’t want to betray the secret of
//partial Transfiguration either.
-- __Фініте Інкантатем__, -- промовив Гаррі до оливи, що вкривала величезний
шмат металу на підлозі.

Він ледве міг себе чути через дзвін у вухах -- так гучно гепнувся суцільний метал,
що вислизнув зі стіни, об підлогу. (Заднім числом Гаррі подумав, що варто було
застосувати чари тиші, хоча це аж ніяк не зупинило б розповсюдження звуку
металевою підлогою.)

-- __Фініте Інкантатем__, -- знову промовив Гаррі, цього разу до оливи, що вкривала
двометровий отвір у стіні, і розповсюдив ефект на всю його довжину.

Гаррі скасовував власну магію, і тому закляття майже не вимагало зусиль. Гаррі
вже був дещо стомленим, проте більше йому не треба буде чаклувати. Насправді,
навіть це не було __обовʼязковим__, просто Гаррі не хотів залишати
трансфігуровану рідину без нагляду, а також не хотів піддавати загрозі таємницю
часткової трансфігурації.

// 10188
//It seemed very… __inviting,__ that two-meter hole leading to freedom.
Ця двометрова діра, що вела до волі, була дуже... __спокусливою__.

// 10189
//The light from outside coming in… wasn’t exactly the Sun shining on his face,
//but it was brighter than anything of Azkaban’s interior.
Світло, що лилося ззовні... не те, щоб прямо сонце сяяло на обличчя, проте воно
було яскравішим за все, що було всередині Азкабану.

// 10190
//Harry __was__ tempted to just go with, just hop on the broomstick with
//Bellatrix and the snake. Chances were that they __would__ get out safely.
//And if they __did__ get out safely, and Harry came with, then he and
//Professor Quirrell could go back in time and look perfectly innocent,
//everything could go back to normal.
Гаррі __хотілося__ просто втекти, застрибнути на мітлу з Белатрисою та змієм.
Цілком можливо, що вони __успішно__ втечуть. І __тоді__, якщо Гаррі піде з
ними, то він з професором Квірелом зможе повернутися в часі й здаватися
цілковито невинними, усе може повернутися до норми.

// 10191
//If Harry stayed behind and turned himself in… then even if everyone assumed
//Harry had been a hostage, assumed Harry had lied to Professor McGonagall’s
//Patronus at wandpoint… even if Harry himself got off lightly, well…
Якщо ж Гаррі залишиться й здасться... то навіть якщо всі вирішать, що Гаррі
був заручником, припустять, що Гаррі збрехав патронусові професорки Макґонеґел
під дулом палички... навіть якщо для Гаррі не буде жодних наслідків, ну...

// 10192
//It wasn’t likely that the Defense Professor would go on teaching at Hogwarts.
Навряд чи професор із захисту продовжить викладання у Гоґвортсі.

// 10193
//Professor Quirrell would have reached the predestined end of his career, in
//February of the school year.
Професор Квірел дійде до приреченого кінця своєї карʼєри -- у лютому місяці
цього шкільного року.

// 10194
//And yes, Professor McGonagall would kill Harry, and yes, it would be slow and
//painful.
І так, професорка Макґонеґел вбʼє за це Гаррі, і так, це відбуватиметься повільно
й буде боляче.

// 10195
//But staying behind was the sensible, safe, __sane__ thing to do, and Harry
//was feeling more relaxed than regretful.
Але залишитися тут було розсудливим, безпечним, __розумним__ рішенням, і Гаррі
відчував більше спокою, ніж жалю.

// 10196
//Harry turned to Bellatrix; he opened his mouth to instruct her a final time -
Гаррі обернувся до Белатриси, розкрив рота, щоб надати їй останній наказ...

// 10197
//And there was a hiss, a weak hiss, a hiss that sounded slow and confused, and
//the hiss said,
І пролунало шипіння, слабке шипіння, шипіння, що було повільним та спантеличеним,
і шипінням цим було сказано:

// 10198
//__“What wass… that noisse?__”
-- __Шщо це був... за шшум?__

***

// 10199
//Through the corridor the old wizard strode. He came to a metal door and opened
//it, already knowing from memory that the cells within were empty.
Коридором хутко крокував старий чарівник. Він підійшов до металевих дверей та
розчинив їх, хоча знав з памʼяті, що камери всередині були порожні.

// 10200
//Seven mighty and discerning incantations the wizard spoke then, before he moved
//on; it would be little enough exertion in total, with so few cells left to
//check.
Тоді чарівник вимовив сім могутніх заклинань виявлення, а тоді пішов далі.
Загалом треба буде докласти невеликих зусиль, адже лишилося перевірити 
не так багато камер.

***

// 10201
//“__Teacher,__” Harry hissed. So many emotions bubbling up in him, all at
//once. He knew, though he could not see, that the green snake around Bellatrix’s
//shoulders, was slowly lifting its head to look around. ”__Are you… all
//right, teacher?__”
-- __Вчителю__, -- прошипів Гаррі. Вир різноманітних емоцій водночас здійнявся в ньому.
Він знав, хоч і не міг бачити, що зелений змій на плечах Белатриси повільно
здійняв голову та роззирався довкола. -- __Зз тобою вссе... гаразд, вчителю?__

// 10202
//“__Teacher?__” came the weak, confused hiss. ”__Where iss thiss? __
-- __Вчитель?__ -- пролунав слабкий, спантеличений шепіт. -- __Де я?__

// 10203
//“__Prisson,__” Harry hissed, ”__the prisson with life-eaterss, we
//were to resscue a woman, you and I. You tried to sslay the protector man, I
//blocked your killing cursse, there was a ressonance between uss… you fell
//unconssciouss, I had to defeat the protector man mysself… my guardian Charm
//wass disspelled, the life-eaterss could tell the protectorss that the woman had
//esscaped. There iss ssomeone here who can ssensse my guardian Charm, probably
//the sschoolmasster… so had to disspell my guardian Charm, find different way to
//hide you and the woman from life-eaterss without guardian Charm, learn to
//protect mysself without guardian Charm, sscare off life-eaterss without
//guardian Charm, then devisse new esscape plan for you and the woman, and
//finally, cut hole in thick metal wall of prisson even though I am only
//firsst-year sstudent. No time to explain, you musst go now. If we never meet
//again, teacher, then I was glad to know you for a time, even though you are
//probably evil. It iss good to have the chance to ssay thiss much: Goodbye.__”
-- __У тюрмі__, -- прошипів Гаррі, -- __у тюрмі зз життєжерами, ми мали врятувати
жінку, ти і я. Ти сспробував умертвити ззахиссника, я ззаблокував твоє ссмертельне
прокляття, між нами виник реззонансс... ти ззнепритомнів, я мав перемогти ззахиссника
ссам... мої чари охоронця були сскассовані, життєжери ззмогли ссказзати ззахиссникам, шщо
жінка втекла. Тут є хтоссь, хто може відчувати мої чари охоронця, напевно директор
шшколи... тому я мав сскассувати чари охоронця і ззнайти інший сспоссіб ссховати тебе
й жінку від життєжерів безз чарів охоронця, навчитисся захишщати ссебе без
чарів охоронця, відлякав життєжерів без чарів охоронця, потім роззробив новий план
втечі для тебе й жінки і, нарешшті, проріззав діру в товсстій металевій сстіні тюрми,
хоча я лишше першшоклассник. Немає чассу поясснювати, ти маєшш іти негайно. Якшщо
ми ніколи більшше не ззусстрінемосся, вчителю, ззнайте, шщо я був радий нашшому
ззнайомсству, хоча ти напевно лихий. Добре, шщо є можливість ссказзати принаймні
це: прошщавайте.__

// 10204
//And Harry took the broomstick and presented it to Bellatrix, saying simply,
//“Get on.”
І Гаррі дав Белатрисі мітлу й сказав просто:

-- Сідай.

// 10205
//He had decided to keep the memories. For one thing, they were important. For
//another, he and the Defense Professor had started planning this a week ago, and
//Harry wasn’t about to obliterate the whole last week, __or __explain to
//Bellatrix exactly what needed to be Obliviated. Harry could probably fool
//Veritaserum, and if Dumbledore insisted that Harry drop his Occlumency shields
//for a deeper examination… well, Harry had acted heroically throughout.
Він вирішив був зберегти памʼять. По-перше, ці спогади були важливими.
По-друге, вони з професором Квірелом почали планувати це все тиждень тому,
а Гаррі не збирався стирати цілий тиждень свого життя __чи__ пояснювати
Белатрисі, що саме треба забуттятнути. Гаррі напевно впорається з сироваткою
правди, а якщо Дамблдор наполягатиме, щоб Гаррі опустив свої щити блокології
для глибшої перевірки... ну, Гаррі весь час діяв доволі героїчно.

// 10206
//“__Sstop!__” said the snake. Its voice was stronger now. ”__Sstop,
//sstop, sstop! What do you mean, goodbye?__”
-- __Сстій!__ -- сказав змій. Тепер його голос набув сили. -- __Сстій,
сстій, сстій! Шщо це зза "`прошщавай`"?__

// 10207
//“__Esscape plan iss rissky,__” said Harry. ”__My life iss not at
//sstake, only yourss and herss. Sso I am sstaying, turning mysself in -__”
-- __План втечі риззикований__, -- сказав Гаррі. -- __Моєму життю нічого не
ззагрожує -- лишше твоєму та її. Тому я лишшаюся, зздаюсся...__

// 10208
//“__No!__” said the snake. The hiss was forceful. ”__Musst not! Not
//permitted!__”
-- __Ні!__ -- наполегливо прошипів змій. -- __Ніяк ні! Забороняю!__

// 10209
//Bellatrix mounted the broomstick; Harry could sense (but never see) her head
//turning to look at him, she said no word. Awaiting him, perhaps, or merely
//awaiting his orders.
Белатриса сіла на мітлу. Гаррі відчував (хоча й не бачив), що її голова
обернулася, щоб подивитися на нього, і не промовила ані слова. Очікувала,
напевно, просто очікувала на його накази.

// 10210
//“__No longer trusst you,__” Harry said simply. ”__Not ssince you
//tried to sslay the protector man.__”
-- __Більшше не довіряю тобі__, -- прямо сказав Гаррі. -- __Не піссля
того, як ти намагавсся умертвити ззахисника.__

// 10211
//And the snake hissed, “__I did not sseek to sslay the protector man! Are
//you fool, boy? Sslaying him would not make ssensse, evil or no!__”
І змій зашипів:

-- __Я не ззбиравсся умертвляти ззахиссника! Ти шщо, дурень, хлопче? Умертвляти
його не було ссенссу, лихий я чи ні!__

// 10212
//The Earth ceased to turn on its axis, paused in its orbit around the Sun.
Земля припинила обертатися, заклякла на орбіті навколо Сонця.

// 10213
//The snake’s hiss was now more furious than anything Harry had ever heard from
//the human Professor Quirrell. “__Sslay him? Had I ssought to sslay him he
//would have been dead within ssecondss, fool boy, he wass no match for me! I
//ssought to ssubdue, to dominate, force him to drop sshieldss upon hiss mind,
//needed to read him, to know who awaited hiss reply, learn detailss for memory
//sspell -”__
Шипіння змі{stress}я переповнювала така лють, якої Гаррі ніколи не чув від
людської подоби професора Квірела.

-- __Умертвити його? Якби я хотів умертвити його, він був би мертвий протягом
ссекунди, йолопе, він далеко не мого рівня! Я хотів підкорити, домінувати,
ззмуссити його сскинути шщити навколо роззуму. Треба було прочитати його, шщоб
ззнати, хто чекав на його ззвіт, діззнатисся подробиці для ззакляття
памʼяті...__

// 10214
//“__You casst killing cursse!__”
-- __Ти викорисстав ссмертельне прокляття!__

// 10215
//“__Knew he would dodge!__”
-- __Я ззнав, шщо він ухилиться!__

// 10216
//“__Wass hiss life worth sso little? What if he did not dodge?__”
-- __Невже його життя таке неважливе? А якби він не ухиливсcя?__

// 10217
//“__Would have pusshed him out of the way with own magic, fool boy!__”
-- __Я б відшштовхнув його ззі шшляху ззакляття влассною магією, дурний
хлопче!__

// 10218
//Again the pause in the planet’s spin. Harry hadn’t thought of that.
І знову обертання планети завмерло. Про це Гаррі не подумав був.

// 10219
//“__Witlesss dunce of a plotter,__” hissed the snake, so angrily that the
//hisses seemed to overlap and slither over each other’s tails, ”__clever
//imbecile, cunning idiot, fool of an untrained Sslytherin, your missplaced
//misstrust hass ruined -”__
-- __Беззталанний телепень-стратег__, -- прошипів змій так злобно, що його
шипіння-речення ніби перекривалися й наповзали на хвіст одне одному, --
__роззумник-імбецил, хитрий ідіот, нетренований сслиззеринець-дурень,
твоя незаслужена недовіра ззруйнувала...__

// 10220
//“__Thiss iss not a fair time to argue,__” Harry observed mildly. The surge
//of relief trying to flood through him was canceled by the increased tension.
//”__Ssince I cannot get angry at you properly, without opening mysself to
//life-eaterss. Musst russh, ssomeone may have heard noisse -”__
-- __Не часс ззаразз ссперечатися__, -- спокійно сказав Гаррі.
Приплив полегшення зупинило посилене напруження. --
__Адже я не можу належно роззгніватисся на тебе, бо інакше
відкриюсся життєжерам. Муссимо посспішшати, хтоссь міг почути шшум...__

// 10221
//“__Explain esscape plan,__” the snake said imperiously.
//”__Sswiftly!__”
-- __Роззповідай план втечі__, -- владно наказав змій. -- __Хутко!__

// 10222
//Harry explained. Parseltongue didn’t have words for the Muggle technology, but
//Harry described the function and Professor Quirrell seemed to understand.
Гаррі пояснив. Парселмові бракувало слів для маґлівської технології, проте Гаррі
описав, що пристрій робив, і професор Квірел ніби зрозумів.

// 10223
//There were a few short hisses, the snakish equivalent of a bark of surprised
//laughter, and then, snapped commands. “__Tell woman to look away, casst
//sspell of ssilence, sset guardian Charm outside door. Will transsform mysself,
//make few sswift improvementss to your invention, give woman emergency potion
//sso sshe can sshield uss, transsform back before you disspell Charm. Plan will
//be ssafer, then.__”
Пролунали короткі шипіння -- зміїний еквівалент здивованого реготу, а тоді
посипалися накази:

-- __Сскажи жінці відвернутисся, ззасстоссуй ззакляття тишші, посстав чари
охоронця зза дверима. Я перетворюсся, ззроблю кілька швидких поліпшшень твого
винаходу, дам жінці ззілля для крайніх випадків, шщоб вона ззмогла
сстворити для насс шщит, перетворюсся наззад перед тим, як ти скасуєш чари.
Тоді план сстане беззпечнішшим.__

// 10224
//“__And am I to believe,__” Harry hissed, __“that healer for woman
//truly awaitss uss?__”
-- __І я маю вірити__, -- прошипів Гаррі, -- __шщо цілитель для жінки
ссправді чекає на насс?__

// 10225
//“__Usse ssensse, boy! Ssupposse I am evil. To end usse of you here iss
//obvioussly not what I planned. Misssion iss target of opportunity, invented
//after ssaw your guardian Charm, whole affair meant to be unnoticed, hid when
//left eating-place. Obvioussly you will ssee persson pretending to be healer on
//arrival! Go back to eating-place afterward, original plan carriess on
//undissturbed!__”
-- __Ззасстоссуй голову, хлопче! Припусстімо, шщо я лихий. Я, очевидно, не
планував припинити викорисстання тебе тут. Ця міссія виникла черезз сприятливу
можливіссть, вона була вигадана піссля того, як я побачив твої чари охоронця,
усся подія мала бути непомітною, невідомим мало залишшитисся вссе піссля того,
як ми покинули міссце їди. Очевидно, шщо ти побачишш людину, шщо гратиме роль
цілителя, коли ми прибудемо! Потім повернемосся до міссця їди, продовжимо зза
оригінальним планом!__

// 10226
//Harry stared at the invisible snake.
Гаррі витріщився на невидимого змі{stress}я.

// 10227
//On the one hand, saying it like that made Harry feel rather dumb.
З одного боку, через всі ці слова Гаррі почувався дурнем.

// 10228
//And on the other hand, it wasn’t exactly reassuring.
З іншого боку, не те, щоб вони заспокоювали.

// 10229
//“__Sso,__” Harry hissed, ”__what iss your plan for me, precissely?__”
-- __Отже__, -- прошипів Гаррі, -- __шщо саме в тебе зза плани шщодо мене?__

// 10230
//“__You ssaid no time,__” came the snake’s hiss, ”__but plan iss for
//you to rule country, obvioussly, even your young noble friend hass undersstood
//that by now, assk him on return if you wissh. Will ssay no more now, iss time
//to fly, not sspeak.__”
-- __Ти каззав, шщо немає часу__, -- відповіло зміїне шипіння, -- __але зза планом
ти, очевидно, правитимешш країною, навіть твій юний шшляхетний друг це вже
ззроззумів. Сспитай його по поверненні, якшщо бажаєшш. Більшше ззаразз не
каззатиму -- часс тікати, а не патякати.__

***

// 10231
//The old wizard reached out toward another metal door, from behind which came a
//endless dead mutter, “I’m not serious, I’m not serious, I’m not serious…” The
//red-golden phoenix on his shoulder was already screaming urgently, and the old
//wizard was already wincing, when -
Старий чарівник підійшов до чергових металевих дверей, що за ними чулося
нескінченне безбарвне бурмотіння: "`Я не хотів. Я не хотів. Я не хотів...`"
Червоно-золотий фенікс на його плечі вже кричав із закликом, а старий чарівник
вже здригався від цього крику, коли...

// 10232
//Another cry pierced the corridor, phoenix-like but not the true phoenix’s call.
Інший скрик заполонив коридор. Він скидався на крик фенікса, проте не був справжнім
закликом фенікса.

// 10233
//The wizard’s head turned, looked at the blazing silver creature on his other
//shoulder, even as ephemeral and substanceless talons launched the spell-entity
//into the air.
Чарівник озирнувся -- не встигнув він поглянути на яскраве срібне створіння, як
цей витвір закляття здійнявся з його іншого плеча, відштовхнувшись своїми
ефемерними кігтями.

// 10234
//The false phoenix flew down the corridor.
Несправжній фенікс полетів коридором униз.

// 10235
//The old wizard raced off after, legs churning like a spry young man of sixty.
Старий чарівник помчав слідом, затупотівши, мов жвавий юнак шістдесяти років.

// 10236
//The true phoenix screamed once, twice, and a third time, hovering before the
//metal door; and then, when it became clear that its master would not return for
//all its calling, flew reluctantly after.
Справжній фенікс скрикнув, скрикнув удруге й втретє, не відлітаючи від
металевих дверей. А тоді, коли стало зрозуміло, що його господар не повернеться
на його заклики, неохоче полетів до нього.

***

// 10237
//Professor Quirrell had assumed his true form, this time - Polyjuice only lasted
//for an hour without redosing - and though the Defense Professor was pale,
//leaning against the metal bars of the nearest cell, his magic was strong enough
//to seize his wand without a word, even as Bellatrix doffed the Cloak and placed
//it obediently in Harry’s waiting hand. The sense of doom was building once
//more, though not in full force, as the Defense Professor’s power returned, the
//fringes of its vast force clashing with Harry’s slight childish aura.
Цього разу професор Квірел повернувся до своєї справжньої подоби --
багатозільна настоянка діяла лише годину -- і хоча професор із захисту був
блідим та спирався на металеві ґрати найближчої камери, його магія була
достатньо сильна, щоб схопити паличку без жодного слова ще до того, як
Белатриса встигла скинути Плащ і слухняно покласти його в простягнуту руку
Гаррі. Відчуття невідворотного, хоча ще не досягло минулого рівня, знову
набирало силу, разом з тим, як до професора із захисту поверталася магія і межі
його могутнього магічного поля стикалися з легенькою дитячою аурою Гаррі.

// 10238
//Harry said aloud the description of his Muggle device, naming it to the
//observing wizard, and then a Finite from Harry turned all his hard work back
//into an ice cube. Professor Quirrell could not cast spells on something Harry
//had Transfigured, for that would be an interaction, however slight, between
//their magics, but -
Гаррі вголос описав маґлівський пристрій та назвав його уважному чарівникові, а
тоді після "`Фініте`" замість плоду своєї важкої праці знову отримав льодовий
куб. Професор Квірел не міг застосовувати жодних заклять на чомусь, що Гаррі
трансфігурував був, адже це була б взаємодія, хай яка віддалена, між їхніми
магіями. Проте...

// 10239
//Three seconds after, Professor Quirrell was holding his own Transfigured
//version of the Muggle device. A single barked word and a sweep of his wand, and
//the residue of glue was gone from the magical item; three more incantations
//later, the magical and technological were fused together as though into a
//single thing, and Charms of Unbreakability and flawless function had been cast
//upon the Muggle device.
За три секунди професор Квірел вже тримав у руках власну трансфігуровану версію
маґлівського пристрою. Єдиний вигук та помах палички, і рештки клею зникли з
магічного предмета. Ще три закляття, і магічна частина нерозривно зʼєдналася з
технічною. Далі на маґлівському пристрої було застосовано чари незламності та
бездоганної роботи.

// 10240
//(Harry felt a lot better about doing this under adult supervision.)
(Гаррі почувався значно ліпше через те, що робить це під наглядом дорослого.)

// 10241
//A potion was thrown to Bellatrix, and Professor Quirrell and Harry both
//commanded, “Drink,” as though speaking in the same voice. The emaciated woman
//had already been lifting it to her lips, without waiting; for it was evident to
//anyone that this snake Animagus was a servant of the Dark Lord, and a powerful
//and trusted one.
Белатрисі кинули зілля, і професор Квірел водночас з Гаррі наказали "`Пий`",
ніби сказали це одним голосом. Виснажена жінка вже піднесла його до губ, не
очікуючи на команду. Бо будь-кому було очевидно, що цей змій-анімаг був
могутнім і довіреним слугою Темного Лорда.

// 10242
//Harry finished pulling the hood of the Cloak of Invisibility over his head.
Гаррі натягнув каптур Плаща невидимості на голову.

// 10243
//A brief and terrible magic lashed out from the Defense Professor’s wand,
//scouring the hole in the wall, scarring the huge chunk of metal that lay in the
//room’s midst; as Harry had requested, saying that the method he’d used might
//identify him.
Швидка й страшна магія вистрелила з палички професора із захисту та спотворила
отвір у стіні, і водночас пошрамувала величезний шматок металу, що лежав
посеред кімнати. Гаррі попросив був про це, сказавши, що використаний ним метод
міг ідентифікувати його.

// 10244
//“Left-hand glove,” Harry said to his pouch, and drew it forth, and put it on.
-- Ліва рукавичка, -- сказав Гаррі капшучку, дістав її та одягнув.

// 10245
//A gesture from the Defense Professor made a harness appear upon Bellatrix’s
//shoulders, and another, smaller cloth device upon her hand, and something like
//handcuffs on her wrists, even as the woman finished drinking the potion.
// hedrok: cloth device - про кобуру (що видно з 10255)
Жест від професора із захисту, і на плечах Белатриси зʼявилася упряж, ще один
-- і інший, менший виріб з тканини зʼявився на її руці та щось на кшталт
наручників на запʼястках. А жінка ще не встигла й допити зілля.

// 10246
//A strange, unhealthy color seemed to come over Bellatrix’s pale face, she
//straightened, her sunken eyes seemed brighter and far more dangerous…
Лице Белатриси набуло дивного, хворобливого кольору, її запалі очі
ніби пояскравішали, і тепер видавалися значно небезпечнішими...

// 10247
//…small wisps of steam were coming out of her ears…
...невеличкі хмарки пари виходили з її вух...

// 10248
//(Harry decided not to think about that part.)
(Гаррі вирішив про це не думати.)

// 10249
//…and Bellatrix Black laughed, then, sudden mad laughter that rang much too
//loudly amid the small prison cells of Azkaban.
...і Белатриса Блек зареготала раптовим божевільним сміхом, що надто гучно
звучав посеред маленьких тюремних камер Азкабану.

// 10250
//(Very soon, the Defense Professor had said, Bellatrix would fall unconscious
//and stay that way for quite awhile, the price of the potion she had taken; but
//for just a few moments she would regain perhaps a twentieth part of the power
//she had once wielded.)
(Зовсім скоро, як пояснив був професор із захисту, Белатриса знепритомніє й не
прийде до тями довгий час -- це ціна за зілля, яке вона прийняла. Проте лише на
кілька хвилин вона відновить, напевно, двадцяту частину її минулої могутності.)

// 10251
//The Defense Professor threw his wand toward Bellatrix, and an instant later
//blurred into a green snake.
Професор із захисту кинув паличку Белатрисі й миттю перетворився на зеленого
змі{stress}я.

// 10252
//An instant after __that __the Dementors’ fear returned to the room.
А миттю __потому__ страх дементорів повернувся в кімнату.

// 10253
//Bellatrix flinched only slightly, caught the wand, and gestured without a word;
//the snake flew up and was inserted into the harness on her back.
Белатриса лише трохи здригнулася, впіймала паличку, і жестом без жодного слова
змусила змі{stress}я злетіти й закріпитися в упряжі на її спині.

// 10254
//Harry said “Up!” to the broomstick.
Гаррі сказав мітлі "`Гоп!`"

// 10255
//Bellatrix attached the wand to the holster on her hand.
Белатриса прикріпила паличку до кобури на руці.

// 10256
//Harry leaped onto the two-person broomstick in the lead position.
Гаррі застрибнув на двомісну мітлу попереду -- він буде нею керувати.

// 10257
//Bellatrix followed behind him, she took the cufflike devices on her wrists and
//chained her hands to the grips of the broomstick, even as Harry’s right hand
//shoved his wand into his pouch.
Белатриса сіла позаду, взяла схожі на наручники вироби та прикувала свої руки
до рукояток мітли. Гаррі тим часом сховав свою паличку у капшучку.

// 10258
//And the three shot forward through the hole in the wall -
І вони втрьох метнулися крізь отвір у стіні...

// 10259
//- emerging into the open air, directly above the Dementors’ pit, in the
//interior of the vast triangular prism that was Azkaban, the blue sky now
//clearly visible above them, shining down its daylight.
...і були просто неба, прямо над ямою дементорів, посеред величезної трикутної
призми під назвою Азкабан. Денне проміння лилося на них з ясно видного синього
неба.

// 10260
//Harry angled the broomstick and began accelerating, upward and toward the
//center of the triangular space. His left hand, gloved to prevent direct contact
//between his skin and something which Professor Quirrell had Transfigured, held
//the switch of the control on the Muggle device.
Гаррі нахилив мітлу та почав прискорюватися вгору й до центру трикутного простору.
У лівиці, що була в рукавиці, щоб уникнути прямого контакту між його шкірою та
чимось трансфігурованим професором Квірелом, він тримав перемикач, що контролював
маґлівський пристрій.

// 10261
//Far above them, distant shouts rang out.
Далеко над ними залунали крики.

// 10262
//__All right, you primitive screwheads!__
__Ви, придуркуваті голови!__

// 10263
//Aurors on fast racing broomsticks angled out of the sky, diving straight down
//toward them, faint sparks of light already blazing downward as the first shots
//were fired.
Аврори на швидких спортивних мітлах спускалися з неба -- вони пірнали прямо на них,
спалахнули ледь видні іскри світла -- перші закляття аврорів уже наближалися.

// 10264
//__Listen up!__
__Слухайте сюди!__

// 10265
//____

// 10266
//“Protego Maximus!” shouted Bellatrix in a mighty, cracked voice, followed by a
//cackling laugh as a shimmering blue field surrounded them.
-- Протеґо Максимус! -- крикнула Белатриса могутнім, надломленим голосом, а тоді
заґелґотала, коли навколо них зʼявилося мерехтливе блакитне поле.


// 10267
//__You see this?__
__Бачите це?__

// 10268
//From the decaying pit in the center of Azkaban, over a hundred Dementors rose
//into the air, appearing to some as a great mass of corpses, a flying graveyard;
//appearing to another as a conglomerate of absences that seemed to form one vast
//rip in the world as they slid upward.
З ями руйнації в центрі Азкабану здійнялося в повітря понад сотню дементорів.
Для когось це скидалося на величезну кількість трупів, на летючий цвинтар. А
для іншого -- на конгломерат відсутностей, що утворювали один величезний розлам
у світі своїм рухом вгору.

// 10269
//__This…__
__Це...__

// 10270
//The voice of an ancient and powerful wizard bellowed a terrible incantation,
//and a great blast of white-golden fire shot out of the hole in Azkaban’s wall,
//shapeless for only a moment before it began to form wings.
Голос древнього й могутнього чарівника прогарчав страшенне закляття, і
неймовірний спалах біло-золотого вогню вистрілив крізь отвір у стіні Азкабану.
Мить вогонь був безформним, а тоді з нього почали формуватися крила.

// 10271
//__Is…__
__Моя...__

// 10272
//And the Aurors activated the Anti-Anti-Gravity Jinx that had been built into
//the wards of Azkaban, disabling all flying spells whose enchantment had not
//been cast with the recently changed passphrase.
Аврори активували антиантигравітаційний прокльон, що був частиною захисних
заклять Азкабану, тим самим знешкодили всі чари польоту, що не були нещодавно
оновлені зміненим паролем.

// 10273
//The lift on Harry’s broom switched off.
Тяга мітли Гаррі вимкнулася.

// 10274
//Gravity, on the other hand, stayed on.
Гравітація, з іншого боку, залишилася ввімкненою.

// 10275
//Their broom’s upward rise slowed, started to decelerate, began the process of
//turning into a fall.
Рух їхньої мітли вгору сповільнився, почав втрачати швидкість, перетворюватися
на падіння.

// 10276
//__My…__
__Чарівна...__

// 10277
//But the enchantments that kept the broom pointed in a direction and allowed
//steering, the enchantments that kept the riders attached and somewhat protected
//them from acceleration, __those__ enchantments were still functioning.
Але закляття, що зберігали напрямок мітли, дозволяли нею керувати, чари, що не
давали наїзникам падати з мітли, дещо захищали їх від прискорення -- __ці__
чари досі працювали.

// 10278
//__BROOMSTICK!__
__МІТЛА!__

// 10279
//Harry hit the ignition switch on the General Technics made, model
//__Berserker PFRC__, N-class, ammonium perchlorate composite propellant,
//solid-fuel rocket that had been mated to his Nimbus X200 two-person broomstick.
// hedrok: @ якщо хтось знає, про який саме пристрій ідеться, напишіть,
// будь ласка.
Гаррі натиснув на кнопку запалювання на моделі "`Берсеркер ПФРС`" Н-класу від
"`Дженерал Текнікс`": твердопаливну ракету з рушієм на перхлораті амонію, що
була зʼєднана з двомісною мітлою "`Німбус X200`".

// 10280
//And there was noise.
І був шум.
