// 12345
//== Self Actualization, Pt 6
== Розділ 71. Пошук себе, ч.6

// 12346
//“Well,” Daphne whispered, keeping her voice as low as she could, “at least now
//I don’t feel like the only sane person in Hogwarts any more.”
// hedrok: "the only sane person in Hogwarts" копія з 069:12170
-- Ну, -- прошепотіла Дафна якомога тихіше, -- принаймні тепер мені більше не
здається, що я єдина нормальна людина в Гоґвортсі.

// 12347
//“Because now you’ve got the rest of us as friends?” whispered Lavender Brown,
//who was tiptoeing along at her left side.
-- Бо тепер в тебе є всі ми -- твої  друзі? -- прошепотіла Лаванда Браун,
що йшла навшпиньки ліворуч від неї.

// 12348
//“I don’t think that’s what she means,” General Granger murmured from Lavender’s
//own left.
-- Гадаю, вона не це мала на увазі, -- пробурмотіла генерал Ґрейнджер ліворуч від
Лаванди.

// 12349
//They crept slowly and carefully through the corridors of Hogwarts, all eight of
//them keeping both ears peeled for the slightest sound of Trouble, just like it
//was a battle and they were looking for enemy soldiers to ambush; only in this
//case they were looking for bullies to Vanquish and victims to Rescue in the
//span between the end of breakfast-time and when Lavender and Parvati had to get
//to their Herbology class.
Вони повільно й обережно скрадалися коридорами Гоґвортсу, усі вісім нашорошили вуха,
щоб почути найменші звуки біди, ніби вони були посеред битви й очікували на засідку
ворожих солдатів. Тільки цього разу вони шукали хуліганів, яких треба перемогти, та
жертв, яких треба врятувати. На це в них був час між сніданком та уроком гербалогії
в Лаванди й Парваті.

// 12350
//Lavender had argued that if one first-year girl could take down three older
//bullies, then eight first-year girls ought to be able to outfight twenty-four
//older bullies because of Multiplication.
Трохи раніше Лаванда переконувала була їх: якщо одна першокласниця змогла
оглушити трьох старших цькувальників, то вісім першокласниць мають бути в змозі
впоратися з двадцятьма чотирма старшими хуліганами, бо "`множення`".

// 12351
//Judging by her frantic spluttering and waving of hands, General Granger hadn’t
//found this convincing.
Судячи з того, як генерал Ґрейнджер несамовито торохтіла й махала руками, її ці
слова не надто переконували.

// 12352
//Padma had stayed silent for a bit during the ensuing argument, and then
//observed thoughtfully that even in Hogwarts, beating up first-year girls
//probably wouldn’t be good for your reputation as a bully.
Падма довгий час мовчала на початку суперечки, а потім вдумливо зазначила,
що навіть у Гоґвортсі побиття першокласниць, напевно, доволі погано
впливало на репутацію хуліганів.

// 12353
//Parvati had straightened up at this, exclaiming that this meant they were the
//__only ones__ who could do something about Hogwarts’s bully problem, which
//made it __really truly__ heroinic. Plus the __whole reason__ their
//parents had moved to Britain was so that the two of them could attend the
//world’s only magical school with a 0// fatality rate, and what was the point if
//they didn’t take advantage and try a few things?
Парваті тоді виструнчилася й заявила, що з цього випливало, що __лише вони__
здатні якось розвʼязати проблему цькування в Гоґвортсі, через що все це
ставало __справді дійсно__ героїнічним. Крім того, їхні батьки переїхали були в
Британію __саме для того__, щоб вони вдвох могли відвідувати єдину чаклунську
школу у світі зі смертністю 0%, а який це мало сенс, якщо вони не спробують
чогось цікавого?

// 12354
//To which General Granger had responded that Parvati didn’t understand the point
//of a perfect safety record __at all__ -
На це генерал Ґрейнджер відповіла, що Паваті __анікрапельки__ не розуміла, в чому
сенс репутації бездоганної безпеки...

// 12355
//Lavender had said that if they were __really__ all friends together and
//not Hermione’s followers like Professor Quirrell thought, then they should vote
//on things like this.
Лаванда сказала, що якщо вони __справді__ просто друзі, а не послідовники
Герміони, як вважав професор Квірел, то вони мають з таких приводів голосувати.

// 12356
//Daphne had expected that hers would be the deciding vote after Hermione and
//Susan and Hannah voted no. And so Daphne had considered it carefully after her
//first flush of enthusiasm wore off. She __was__ a Slytherin, after all,
//and that meant it was __her__ responsibility to keep a watchful eye on
//their own interests while they were all running around trying to help people -
//her job to figure out how risky it really was, and whether it would be worth it
//for __them__, just like Mother would have done in her place. Always
//looking out for yourself and your friends like that, was what real Slytherining
//was all about…
Дафна очікувала, що її голос буде вирішальним, коли Герміона, Сьюзен та Анна
проголосують "`ні`". Тому Дафна старанно міркувала, коли перший наплив
ентузіазму зійшов. Зрештою, __вона__ зі Слизерину, а це означало, що __її__
обовʼязок пильнувати їхні власні інтереси, доки вони всі бігають та намагаються
допомогти людям... Це її задача -- оцінити, наскільки це насправді ризиковано
і чи варте воно того для __їхніх__ інтересів, -- саме так би вчинила її матір.
Завжди піклуватися про себе й своїх друзів -- ось що таке бути справжнім
слизеринцем.

// 12357
//Hannah Abbott, the nervous little Hufflepuff girl, had in a small trembling
//voice said “Yes.”
-- Підтримую, -- тремтячим голосом вимовила маленька перелякана гафелпафка
Анна Ебот.

// 12358
//And now Daphne and Susan and Hermione __had__ to stay with the other five,
//they couldn’t __possibly__ let the others go off on their own. Because no
//Gryffindor would ever live down hurting the last surviving child of the Bones
//family, and no Slytherin would dare assault a daughter of the Noble and Most
//Ancient House of Greengrass. (Daphne __hoped__ so, anyway.) And General
//Granger who’d started the whole thing… you didn’t even have to ask.
Після цього Дафна, Сьюзен та Герміона __мусили__ йти з іншими пʼятьма --
вони __жодним чином__ не могли дозволити решті йти самим. Бо жодному
ґрифіндорцеві не пробачать, якщо він нашкодить останньому нащадку родини Боунз,
і жоден слизеринець не наважиться атакувати доньку шляхетного й найдавнішого
роду Ґрінґрас. (Принаймні, Дафна на це __сподівалася__.) А генерал Ґрейнджер,
що все це почала... її навіть не варто було питати.

// 12359
//The corridors of Hogwarts passed them by one after another, their tense hands
//never straying far from their wands, as stone and wood and Everburning Torches
//came into vision and then moved past. At one point they heard footsteps and
//drew in their breath, hands almost dropping to their wands, but it was just a
//lone older Ravenclaw who looked at them curiously before sniffing and dropping
//his head back to his book as he walked on.
І ось коридори Гоґвортсу проминали повз один за одним, дівчата тримали руки
поряд з паличками, а камінь, дерево й смолоскипи вічного вогню вигулькували
перед ними й зникали за їхніми спинами. Якось вони почули кроки й затамували подих,
палички ледь не випали з їхніх рук, та виявилося, що це був лише якийсь
старший рейвенкловець, що йшов сам, призупинився, зацікавлено на них поглянув,
а тоді хмикнув, повернув погляд до книжки та пішов собі.

// 12360
//The heroines crept past solemn oaken panels carved with gilded frescos, and
//came to a dead end leading into a boys’ bathroom, and turned around, and
//wandered __back__ through the solemn oaken panels carved with gilded
//frescos, and then turned through dusty old brick corridors grouted with worn
//cement, which sort of led them in a circle actually, so they consulted a
//portrait and then went down a __different__ dusty old brick corridor
//instead, that took them to a brief rise of marble stairs that should’ve put
//them on the third-and-a-halfth floor if it’d been anywhere but Hogwarts, and
//then it was back to tiled stone pavement again, and skylights that let shafts
//of sunlight pour down even though they were nowhere near the roof, and after
//they’d followed that passageway around a few corners it took them to another
//boys’ bathroom, clearly marked with a plaque showing the silhouette of a robed
//figure whizzing into a toilet.
Героїні пройшли навшпиньках повз величні дубові панно з вирізьбленими позолоченими
фресками й підійшли до глухого кута з дверима до хлопчачого туалету, розвернулися, і
попленталися __назад__ вздовж величних дубових панно з вирізьбленими позолоченими
фресками, далі звернули до запорошеного коридору зі старої цегли, яку тримав
потрісканий цемент, після чого вийшло, що вони зробили коло, і їм довелося розпитати
портрет, тоді вони пішли вниз __іншим__ запорошеним коридором зі старої цегли, піднялися
короткими мармуровими сходами, після яких вони б опинилися на четвертому з половиною
поверсі, якби вони були деінде, а не в Гоґвортсі, і знову бруківка, дахові вікна, крізь
які лилося сонячне проміння, хоч вони й близько не дійшли до даху, потім вони
пішли звивистим проходом, що привів їх до іншого хлопчачого туалету -- табличка з силуетом 
у мантії, що дзюрчав в унітаз, не залишала жодних сумнівів.

// 12361
//The eight of them stood before the closed door and stared with a certain amount
//of weariness.
Вісім дівчат стояли навпроти зачинених дверей та витріщалися на них із певною
втомою.

// 12362
//“I’m bored,” said Lavender.
-- Мені нудно, -- сказала Лаванда.

// 12363
//Padma made a show of taking a pocketwatch out of her robes and looking at it.
//“Sixteen minutes and thirty seconds,” she said. “A new record for the longest
//attention span in Gryffindor.”
Падма урочисто дістала кишеньковий годинник з мантії та подивилася на нього.

-- Шістнадцять хвилин тридцять секунд, -- сказала вона. -- Новий рекорд
тривалості утримання уваги в Ґрифіндорі.

// 12364
//“__I__ don’t think this is going to work either,” said Susan. “And I’m a
//__Hufflepuff__.”
-- __Я__ також вважаю, що нічого не вийде, -- сказала Сьюзен. -- А я з
__Гафелпафу__.

// 12365
//“Y’know,” Lavender said thoughtfully, “I wonder if maybe what __really__
//makes someone a hero, is that when they try something like this, something
//interesting__ actually happens__.”
-- А знаєте, -- задумливо сказала Лаванда, -- цікаво, може __насправді__
герої -- це ті люди, з ким __насправді__ трапляється щось цікаве, коли вони
ось так йдуть шукати пригод.

// 12366
//“I bet you’re right,” said Tracey. “I bet if we had __Harry Potter__ with
//us, we’d run into three bullies and a hidden room full of treasure in the first
//five minutes. I bet that all General Chaos has to do is go to the bathroom and
//he, like, finds Slytherin’s Chamber of Secrets or something -”
-- Закладаюся, так і є, -- сказала Трейсі. -- Закладаюся, якби з нами був __Гаррі Поттер__,
ми б зіткнулися з трьома цькувальниками та прихованою кімнатою, що напхом напхана
скарбами, протягом перших пʼяти хвилин. Закладаюся, генералу Хаосу достатньо просто піти в
туалет, і він, ну, знаходить Таємну Кімнату Слизерина чи щось таке...

// 12367
//Daphne couldn’t quite let that one go past. “You think Lord Slytherin would’ve
//put the entrance to the Chamber of Secrets in a __bathroom -__”
Дафна не могла пропустити це повз вуха.

-- Ти гадаєш, що лорд Слизерин зробив вхід до Таємної кімнати в __туалеті__...

// 12368
//“What I’m __saying,__” said Susan, as Tracey was opening her mouth to
//reply, “is that we’ve got no way of actually __finding__ any bullies. I
//mean, all __they’ve__ got to do is find a Hufflepuff somewhere, but we’ve
//got to run across them at exactly the right __time__, d’you see? Which is
//a __very good problem__ because if we __did__ find them we’d all get
//squished like bugs. Can’t we just do the forbidden third-floor corridor like
//we’re __supposed__ to?”
-- Я __маю на увазі__, -- перервала Сьюзен, Трейсі встигла лише розкрити рота для
відповіді, -- що в нас немає шансів справді __знайти__ бодай якогось
цькувальника. Тобто __їм__ достатньо лише знайти якогось гафелпафця, а нам
треба зустріти їх у __правильну мить__, розумієте? І це __добряча проблема__,
бо якби ми __знайшли__ їх, нас розчавили б мов жуків. Може просто пройдемо
заборонений коридор на четвертому поверсі, як і __належить__?

// 12369
//Lavender snorted scornfully. “You don’t become a __real__ heroine just by
//doing the forbidden things the Headmaster __tells__ you not to do!”
Лаванда зневажливо фиркнула.

-- __Справжньою__ героїнею не стати, якщо просто робити заборонені речі, які
директор __каже__ не робити!

// 12370
//(Daphne’s mind tried to wrap around this statement as she silently thanked the
//Sorting Hat for not putting her anywhere near Gryffindor.)
(Дафна намагалася осягнути розумом це твердження й тихо дякувала Сортувальному
Капелюхові за те, що він її навіть поряд з Ґрифіндором не відсортував.)

// 12371
//“Come to think…” Parvati said slowly, “I mean, what’re the odds that Harry
//Potter would run across those five bullies on his __first morning__ of
//school? He must’ve had __some__ way of finding them.”
-- До речі... -- повільно промовила Парваті, -- ну які шанси,
що Гаррі Поттер зустрів пʼятьох хуліганів __першого ж ранку__ в школі? У нього
__має__ бути якийсь метод їх знаходити.

// 12372
//Daphne happened to be standing where looking at Parvati let her see Hermione,
//so she noticed the Ravenclaw girl’s expression change - and then she realized
//that the Sunshine General had __also__ found some bullies just recently -
Так трапилося, що Дафна так стояла, що при погляді на Парваті в її полі зору
була також і Герміона, тож Дафна помітила, як перемінилося обличчя рейвенкловки,
-- і тоді вона збагнула, що генерал Сонечка __теж__ знайшла цькувальників
зовсім нещодавно...

// 12373
//“Oh!” said Padma in a tone of sudden realization. “Of course! He got told by
//the ghost of Salazar Slytherin!”
-- О! -- вигукнула Падма, ніби щось зрозуміла. -- Ну звісно! Йому сказав
привид Салазара Слизерина!

// 12374
//“__What?__” said Daphne at the same time as several other people.
-- __Що?__ -- водночас вимовила Дафна й ще кілька людей.

// 12375
//“That’s who the ghost was that scared me, I’m pretty sure,” Padma explained. “I
//mean I only figured it out afterward, but… yeah. Salazar Slytherin’s ghost
//doesn’t like it when Slytherins bully people, he thinks it shames his name, and
//the ghost is still keyed into the Hogwarts wards so he knows everything that
//happens, I bet.”
-- Ось чий привид мене налякав був, я майже впевнена, -- пояснила Падма. --
Тобто, я це зрозуміла лише потім, але... так. Привидові Салазара Слизерина не
до вподоби, коли слизеринці цькують людей, він вважає, що це безчестить його
імʼя, і привид досі має доступ до захисних чарів Гоґвортсу, тож знає все, що
відбувається, я певна.

// 12376
//Daphne’s mouth was hanging open; and she saw that Hannah had put a hand to her
//forehead and was leaning against the stone walls, while Tracey’s eyes were
//blazing like little brown stars.
Дафна так і не закрила рота. Анна закрила чоло рукою та спиралася на камʼяні
стіни, а очі Трейсі палали, мов маленькі брунатні зорі.

// 12377
//__Salazar Slytherin’s ghost?__
__Привид Салазара Слизерина?__

// 12378
//Had leagued himself with __Harry Potter?__
Обʼєднався був з __Гаррі Поттером__?

// 12379
//And had sent __Hermione Granger__ to stop Derrick’s crew?
І надіслав був __Герміону Ґрейнджер__ зупинити команду Дерика?

// 12380
//She would have paid a hundred Galleons to be there when Draco Malfoy got told
//about this.
Вона готова була віддати сто ґалеонів, щоб побачити, як Драко Мелфой сприйме
ці новини.

// 12381
//Although considering how fast rumors spread through Hogwarts, now that Padma
//had spilled the beans, Millicent had probably told him thirty minutes ago…
// @ spilled the beans
Хоча Падма вже все розпатякала, і, враховуючи, як швидко поширюються чутки в
Гоґвортсі, Мілісент напевно вже розповіла була йому півгодини тому...

// 12382
//In fact… now that Daphne __thought__ about it…
Насправді... тепер, коли Дафна __подумала__ про це...

// 12383
//“So,” said Parvati. “We’ve got to ask the Boy-Who-Lived where to find Salazar
//Slytherin’s ghost? Wow, I guess if I’m saying stuff like that out loud, I might
//actually be turning into a heroine -”
-- Отже, -- сказала Парваті, -- нам треба спитати в Хлопчика-Що-Вижив, як
знайти привида Салазара Слизерина? Ого, якщо я вже кажу таке вголос, певно, я
й справді перетворююся на героїню...

// 12384
//“Yes!” said Lavender. “We’ve got to ask the Boy-Who-Lived where to find Salazar
//Slytherin’s ghost!”
-- Так! -- вигукнула Лаванда. -- Нам треба спитати Хлопчика-Що-Вижив, як знайти
привида Салазара Слизерина!

// 12385
//“We’ve got to ask… the Boy-Who-Lived… where to find Salazar Slytherin’s ghost…”
//repeated Hannah in a nervous voice, like she was forcing herself to say it.
-- Нам треба спитати... Хлопчика-Що-Вижив... як знайти привида Салазара
Слизерина, -- нервово повторила Анна, ніби вичавлювала з себе кожне слово.

// 12386
//“And if __that__ doesn’t work,” shouted Tracey, “we’ll stun Harry Potter,
//tie him up and bring him __with__ us!”
-- А якщо __навіть це__ не спрацює, -- крикнула Трейсі, -- ми оглушимо Гаррі Поттера,
звʼяжемо його й візьмемо його __з собою__!

***

// 12387
//It said something, Hermione Granger thought, and it was something rather sad -
//as the eight of them strolled back through the maze of twisty little passages
//that was Hogwarts, their time before the next class having run out without
//finding any bullies - that she genuinely didn’t know whether Harry Potter had
//been led around by the ghost of Salazar Slytherin or a phoenix or
//__what.__ And whatever Harry had done, she hoped it __didn’t__ work
//for them. And most of all she hoped that the others didn’t vote for Tracey’s
//idea of stunning Harry Potter and carting his unconscious body around with them
//to attract Adventures. That couldn’t possibly work in real life, or, if it did,
//she was giving up.
Про щось це свідчило, міркувала Герміона Ґрейнджер, доки всі вісім дівчат
швидким кроком поверталися лабіринтом звивистих вузеньких проходів під назвою
Гоґвортс, час перед наступним заняттям вже вичерпався, а їм так і не трапився
жоден цькувальник. І свідчило це про щось доволі сумне, та вона справді не знала,
керує Гаррі Поттером привид Салазара Слизерина, фенікс чи __щось інше__. І хай що
Гаррі зробив був, вона сподівалася, що це __не спрацює__ для них. А понад усе
вона сподівалася, що інші не проголосують за пропозицію Трейсі оглушити Гаррі
Поттера й носити його непритомне тіло з собою для прикликання Пригод. Це звісно
не могло спрацювати в справжньому житті, а якби спрацювало, то вона б усе це кинула.

// 12388
//Hermione looked from witch to witch, Tracey chatting with Lavender, and the
//others making occasional remarks; and her gaze caught on a girl who was subdued
//and quiet, the one person whose thoughts right now she couldn’t guess at all.
Герміона почергово поглянула на кожну відьму: Трейсі теревенила з Лавандою,
інші подеколи щось коментували. А тоді вона перевела погляд на дівчину, що
була понурою й тихою, наразі єдину людину, чиїх поточних думок вона взагалі
не була здатна передбачити.

// 12389
//“Hannah?” she said to the girl walking alongside her. Hermione tried to make
//her voice as gentle as she could. “You don’t have to answer, but is it okay if
//I ask why you voted yes on fighting bullies?”
-- Анна? -- сказала вона дівчинці поряд. Герміона намагалася розмовляти якомога
лагіднішим тоном. -- Ти не мусиш відповідати, та якщо ти не проти розказати, чому
ти проголосувала за боротьбу з цькувальниками?

// 12390
//Hermione had thought she’d made her voice soft, but everyone stopped walking,
//and Lavender and Tracey halted their conversation and looked at them.
Герміона гадала була, що спитала це тихо, та всі зупинилися, а Лаванда з
Трейсі припинили розмову й споглядали за ними.

// 12391
//Hannah’s cheeks were already reddening, and just as Hannah opened her mouth -
Щоки Анни вже почали наливатися румʼянцем, і коли Анна вже відкрила рота...

// 12392
//“It’s ‘cause she’s got more courage than __you__ think, obviously,” said
//Lavender.
-- Очевидно, вона сміливіша, ніж __ти__ вважаєш, -- сказала Лаванда.

// 12393
//Hannah paused with her mouth open.
Анна заклякла з розкритим ротом.

// 12394
//She closed her mouth.
Тоді закрила його.

// 12395
//She swallowed, hard and visibly, while her cheeks reddened even further.
Було добре видно, як вона ковтнула слину, а її щоки почервоніли ще сильніше.

// 12396
//Then Hannah took a deep breath, and said, in a small voice, “There’s a boy I
//like.”
Анна глибоко вдихнула й тихесенько промовила:

-- Мені подобається один хлопець.

// 12397
//The Hufflepuff girl flinched as she said it, and her head darted around
//nervously to look at everyone looking at her, while the pause and silence
//stretched.
Гафелпафка аж здригнулася, коли це вимовляла, вона знервовано кинула оком
на всіх, а всі дивилися на неї, і мовчанка затягувалася.

// 12398
//“Um, okay?” Susan said eventually.
-- Ем, ну і? -- зрештою сказала Сьюзен.

// 12399
//“I’ve got __five__ boys I like,” said Lavender.
-- Мені подобаються __пʼять__ хлопців, -- сказала Лаванда.

// 12400
//“Padma and I knew we’d both like the same boys,” said Parvati, “so we made a
//list and flipped a Knut to see who got to pick first.”
-- Ми з Падмою знали, що нам обом подобатимуться одні й ті самі хлопці, --
сказала Парваті, -- тож ми склали список і підкинули кнат, щоб визначити, хто
вибиратиме першою.

// 12401
//“I know who __I’m__ destined to marry,” said Tracey. “I don’t care what
//the world says, he’s meant to be mine!”
-- Я знаю, з ким __мені__ призначено долею одружитися, -- сказала Трейсі. --
Мені начхати, що з цього приводу вважає світ, він -- мій!

// 12402
//This made all the other girls look expectantly at Hermione, whose brain had
//gone ahead and flushed Tracey’s last statement entirely so it could focus on
//just on the first thing Hannah had said.
Через це решта дівчат очікувально поглянули на Герміону, чий розум повністю
винесла остання репліка Трейсі, тож вона вирішила зосередитися на тому, що
сказала Анна.

// 12403
//“Um,” said Hermione. She carefully continued keeping her voice gentle. “Hannah,
//the reason why you joined the Society for Promotion of Heroic Equality for
//Witches was that there’s a boy who might like you more if you become a hero?”
-- Ем, -- сказала Герміона. Вона дуже старалася продовжувати розмовляти лагідно.
-- Анно, ти вирішила приєднатися до Спілки Сприяння Руху Англійських Героїнь-Чарівниць,
аби справити враження на хлопця, ставши героїнею?

// 12404
//The Hufflepuff girl nodded again, her cheeks reddening even further while she
//stared down at her own reflection in her black-polished shoes.
Гафелпафка знову кивнула, її щоки навіть сильніше почервоніли, доки вона
втупилася у власне відображення у своїх чорних дзеркальних туфлях.

// 12405
//“She likes Neville Longbottom, actually,” Daphne said. The Slytherin gave a
//woeful sigh. “And unfortunately for her, he’s going to marry someone else. It’s
//very tragic.”
-- Насправді їй подобається Невіл Лонґботом, -- сказала Дафна. Слизеринка
скорботно зітхнула. -- Та на жаль для неї, він одружиться з кимось іншим. Дуже
трагічно.

// 12406
//This produced a high-pitched __eeping__ sound from Hannah as she went on
//staring at her feet.
Від цієї репліки Анна високо вереснула, але не відірвала погляду від власного
взуття.

// 12407
//“Wait what?” said Lavender. “Neville’s going to marry someone else? How do you
//know about this? __Who?__”
-- Заждіть, що? -- запитала Лаванда. -- Невіл одружиться з кимось іншим? Звідки
ти знаєш? __З ким__?

// 12408
//Daphne just shook her head sadly with a downcast expression.
Дафна лише понуро похитала головою.

// 12409
//“__Excuse me__,” said Hermione, and then when the others looked at her
//again, “Ah…” while she tried to organize her thoughts. “I mean, um… Hannah…
//trying to become a hero so that a boy will like you isn’t very
//__feminist__.”
-- __Даруйте__, -- сказала Герміона.

Коли решта звернули на неї увагу, вона вимовила лише "`е...`", доки збиралася
з думками.

-- Я хочу сказати, ем... Анно... старатися стати героєм, щоб сподобатися хлопцеві, --
не надто __феміністично__.

// 12410
//“It’s pronounced __feminine__ actually,” said Padma.
-- Насправді правильно "`фемінно`", означає "`жіночість`", -- сказала Падма.

// 12411
//“And why’re you calling Hannah unfeminine?” said Susan. “There’s nothing
//unfeminine about wanting to impress a boy.”
-- Чому ти називаєш Анну не жіночою? -- обурилася Сьюзен. -- Немає нічого
не жіночого в бажанні справити враження на хлопця.

// 12412
//“Besides,” said Parvati, sounding puzzled, “isn’t the whole point that we’re
//trying to be heroes even though that isn’t feminine?”
-- Крім того, -- спантеличено додала Парваті, -- хіба вся суть не в тому, що ми
стараємося стати героями, хоч це й не надто жіночо?

// 12413
//The ensuing discussion would not be remembered by Hermione Granger as one of
//her most successful forays into the realms of political education. She tried to
//explain, and then after the resulting argument tried to explain again, while
//the other seven girls looked at her more and more skeptically. Afterward Daphne
//declared in the imperious tones of the future Lady Greengrass that if this
//feminism business meant girls weren’t allowed to pursue boys in whichever way
//they pleased, then feminism could stay in the Muggle lands where it belonged.
//Lavender suggested that maybe witchism could say that witches got to do
//anything they wanted, which sounded like more fun than feminism. And finally
//Padma closed off further discussion by observing wearily that she didn’t see
//much point to going on arguing, since S.P.H.E.W. wasn’t__ about__ anything
//to do with feminism in the first place, it was just about more girls becoming
//heroes.
Подальшу дискусію Герміона не згадуватиме як найуспішнішу свою промову з політичної
освіти. Вона намагалася пояснити, а після суперечки намагалася пояснити ще раз,
та інші сім дівчат дивилися на неї дедалі скептичніше. Потім Дафна оголосила
владним тоном майбутньої леді Ґрінґрас, що коли цей фемінізм означав, що
дівчатам не дозволено бігати за хлопцями так, як дівчатам хочеться, то хай цей
фемінізм залишається в маґлівському світі, де йому й місце. Лаванда
запропонувала створити відьмізм, згідно з яким відьмам треба робити все, що
вони забажають, і це здавалося їй значно веселіше за фемінізм. І нарешті
Падма завершила дискусію, стомлено зазначивши, що немає сенсу про це
сперечатися, бо С.С.Р.А.Г.Ч. __жодним чином__ не повʼязаний з фемінізмом -- це
просто рух за те, щоб більше дівчат ставали героями.

// 12414
//Hermione had given up at that point.
Тоді Герміона здалася.

***

// 12415
//As their Charms session that day ended and the first-year Ravenclaws began
//shuffling out of the class, Hermione was already wincing to herself. They’d
//made it to class just barely before the opening gong, they’d had to run right
//over to their desks and sit down, so there hadn’t been time for the awful thing
//to happen __yet;__ but that just meant that Hermione got to look forward
//to the coming disaster for the __whole class.__
Коли того дня заняття чарів завершилося й рейвенкловці першого класу почали
покидати кабінет, Герміона вже внутрішньо здригалася. Вони ледве встигли на
урок перед дзвінком, їм довелося бігти до своїх місць, тож часу на те, щоб
жахлива подія __вже__ сталася, не було. Та це лише означало, що Герміона очікувала
на цю катастрофу __все заняття__.

// 12416
//Sure enough, after Professor Flitwick squeaked his dismissal and everyone rose
//from their chairs, Harry began walking toward her; and for her own part
//Hermione shoved her book into her mokeskin pouch and very quickly walked over
//to the door and threw it open and headed into the corridors, and of course
//Harry followed her with a surprised look because they had a library session
//scheduled -
Звісно, коли професор Флитвік пропищав, що урок завершено, всі підвелися зі стільців,
і Гаррі почав до неї йти. Вона запхала книжку до свого мокового капшучка та
хутко пішла до дверей, розчахнула їх і попрямувала до коридорів, і, звісно,
Гаррі здивовано пішов слідом, адже в них на цей час було призначено сумісне
відвідування бібліотеки...

// 12417
//“Hermione?” Harry said as he closed the door behind him. “What’s wrong?”
-- Герміоно? -- запитав Гаррі, зачинивши за собою двері. -- Щось трапилося?

// 12418
//The door flew open behind Harry not a moment after he closed it, almost hitting
//Harry as he stepped out of the way, and Padma Patil stepped out of the
//classroom with a dreadful look of determination upon her face.
Двері за спиною Гаррі відчинилися, щойно він їх зачинив, ледве на вдаривши
його, коли він відступив на крок, і з кабінету вийшла Падма Патіл із грізною
рішучістю на лиці.

// 12419
//“Excuse me, Mr. Potter,” came the awful words, the young girl’s high voice
//resounding through the corridor like the gloomy bells of doom, “can I ask you
//for help with something?”
-- Перепрошую, містере Поттер, -- високим дівчачим голосом пролунали жахливі слова
і рознеслися коридором, мов похмурі дзвони долі, -- можна спитати у вас про
дещо?

// 12420
//Harry’s eyebrows drew up, and he said, “You can __ask,__ of course.”
Брови Гаррі здійнялися, і він відповів:

-- Звісно, ти можеш __спитати__.

// 12421
//“Can you tell us how to talk to Salazar Slytherin’s ghost? We want him to tell
//us where to find bullies, like he tells you.”
-- Чи не міг би ти розказати, як звʼязатися з привидом Салазара Слизерина? Ми хочемо,
щоб він повідомляв нам, де знайти цькувальників, як він повідомляє про це й
тобі.

// 12422
//There was a little bit of silence in the corridor outside the classroom.
Ненадовго в коридорі запанувала тиша.

// 12423
//The door opened again, and Su peered out with an inquiring look -
Тоді двері знову розчахнулися, і Су зацікавлено визирнула...

// 12424
//“Well, we’ve got to get to the library,” Harry said quite casually, his face
//looking relaxed, “would you mind following us?” and began to walk off in the
//direction that led to the library on odd-numbered days of the month, and Su
//made like she was going to follow but Harry’s face turned toward her for a
//moment.
-- Ну, ми зараз ідемо в бібліотеку, -- звичайним тоном сказав Гаррі, на його
обличчі не було анікраплі напруженості, -- може приєднаєшся до нас?

І він пішов у напрямку, що вів до бібліотеки по парних днях місяця. Су рушила
за ним, та Гаррі на мить озирнувся.

// 12425
//It wasn’t until Harry had rounded a corner that he drew his wand, said in a low
//precise voice “__Quietus__” and then turned to Padma and said, “An
//interesting guess, Miss Patil.”
Лише коли Гаррі завернув за ріг, він витягнув паличку, а тоді тихо й точно вимовив
"`__Квіетус__`". Лише після цього він подивився на Падму й сказав:

-- Цікавий здогад, міс Патіл.

// 12426
//Padma looked rather smug, then; and said, “I __should’ve__ figured it out
//earlier, really. There was that __hiss__ in the ghost’s voice, I should’ve
//thought Parselmouth right away, even before he started talking about Godric
//Gryffindor.”
Падма аж сяяла самовдоволенням.

-- Я __мала б__ здогадатися ще раніше, -- сказала вона. -- Привид трохи __шипів__,
коли розмовляв, і я одразу подумала про парселмову, ще перед тим, як він почав
розповідати про Ґодрика Ґрифіндора.

// 12427
//Harry’s face didn’t change. “May I ask, Miss Patil, whether you’ve shared this
//thought with -”
Вираз обличчя Гаррі не змінився.

-- Дозвольте спитати, міс Патіл, ви з кимось поділилися цією думкою...

// 12428
//“She said it in front of everyone in S.P.H.E.W.,” Hermione said.
-- Вона сказала про це перед усім С.С.Р.А.Г.Ч., -- відповіла Герміона.

// 12429
//Harry’s eyes had that look they had when he was very rapidly calculating
//something, and then he said, “Hermione, what’s the chance that -”
По очах Гаррі було видно, що він швидко щось обмірковує, а тоді він
сказав:

-- Герміоно, а яка ймовірність того...

// 12430
//“She said it in front of Lavender __and__ Tracey.”
-- Вона сказала це в присутності Лаванди __і__ Трейсі.

// 12431
//“Um,” said Padma. “Should I not’ve done that?”
-- Ем, -- сказала Падма. -- Не варто було?

***

// 12432
//“Wait here,” growled Mr. Goyle, and went around the corner; and there was the
//sound of him knocking on Draco Malfoy’s private room.
-- Зачекай тут, -- прогарчав містер Ґойл і завернув за ріг. Тоді почувся стукіт
у двері особистої кімнати Драко Мелфоя.

// 12433
//There was a bit of a queasy feeling in Tracey’s stomach, and she reminded
//herself again that since Padma had spilled the beans __someone__ was bound
//to tell Draco Malfoy, and it might as well be __her__, and it wasn’t as if
//she __owed__ Harry Potter anything, and a Slytherin had to do what was
//necessary to achieve her Ambitions.
Трейсі було дещо ніяково, та вона нагадала собі, що Падма вже все розпатякала,
тож __хтось__ безсумнівно розкаже Драко Мелфою, і чому б __їй__ не бути цим кимось.
Вона ж не була в якомусь __боргу__ перед Гаррі Поттером, а слизеринці мали робити
те, що допомагає їм досягти своєї амбіційної мети.

// 12434
//She’d been collecting Ambitions ever since Professor Quirrell told her off, and
//so far she’d decided that she wanted to own her own Nimbus 2000 broomstick,
//become super famous, marry Harry Potter, eat Chocolate Frogs for breakfast
//every day, and defeat at least __three__ Dark Lords just to show Professor
//Quirrell who was ordinary.
Вона почала була колекціонувати амбіційні цілі після того, як професор Квірел
нагримав був на неї. Наразі вона вирішила, що хоче власну мітлу "`Німбус 2000`",
стати неймовірно відомою, одружитися з Гаррі Поттером, їсти шоколадні жабки
на сніданок щодня і перемогти принаймні __трьох__ темних лордів, просто щоб
професор Квірел знав, хто тут посередність.

// 12435
//“Mr. Malfoy will see you,” said the low, menacing voice of Mr. Goyle as he
//returned. “And you’d better hope he doesn’t think you’re wasting his time.” The
//boy loomed at her briefly, and then stepped aside.
-- Містер Мейлфой прийме вас, -- сказав низьким загрозливим тоном містер Ґойл,
коли повернувся. -- І краще б це не виявилося марнуванням його часу.

Хлопець трохи понависав над нею, а тоді відступив убік.

// 12436
//Tracey added having her own servants to her list of Ambitions, and entered.
Трейсі додала до списку своїх цілей власних слуг та зайшла.

// 12437
//The Malfoy private bedroom looked just like Daphne’s. She’d been privately
//hoping for diamond chandeliers or golden frescos on the walls - she’d never
//have said it in front of Daphne, but the House of Malfoy __was__ a step up
//from Greengrass. But it was just a small bedroom like Daphne’s, and the only
//difference was that Malfoy’s stuff was decorated in silver snakes instead of
//emerald plants.
Особиста кімната Мелфоя нічим не відрізнялася від кімнати Дафни. Трейсі трохи
сподівалася на алмазні канделябри чи золоті фрески на стінах -- при Дафні вона
б такого ніколи не сказала, та рід Мелфоїв __був__ на сходинку вищим від
Ґрінґрасів. Але це була просто невеличка спальня, як і в Дафни. Єдиною
відмінністю було те, що речі Мелфоя прикрашали срібні змії замість смарагдових
рослин.

// 12438
//As she stepped through the doorway, Draco Malfoy - who was perfectly groomed
//even inside his own bedroom - rose up from his desk chair to greet her with a
//small friendly bow, wearing a charming smile just like she was someone who
//__mattered,__ which made Tracey so flustered that she forgot everything
//she’d rehearsed inside her head and just blurted out, “I’ve got something to
//tell you!”
Коли вона переступила поріг, Драко Мелфой -- він був бездоганно одягнутим навіть
у власній кімнаті -- підвівся з-за стола й привітав її невеличким дружнім кивком.
На його обличчі грала чарівлива усмішка, ніби вона була __кимось важливим__, через
що Трейсі так розхвилювалася, що всі заготовлені репліки вилетіли їй з голови й
вона просто випалила:

-- Я хочу дещо вам розповісти!

// 12439
//“Yes, Gregory said so,” Draco Malfoy said smoothly. “Please, Miss Davis, sit
//down.” He gestured to __his own desk chair__, even as he sat down on his
//bed.
-- Так, Ґреґорі казав про це, -- одразу зреагував Драко Мелфой. -- Міс Девіс,
будь ласка, сідайте.

Він вказав на __свій власний стілець__, а сам сів на ліжко.

// 12440
//She felt somewhat lightheaded as she carefully sat herself down in Malfoy’s own
//chair, her fingers unthinkingly fiddling with how her dress robes fell across
//her knees, trying to make them look as elegant and uncreased as Draco Malfoy’s
//-
Їй трохи запаморочилося в голові, коли вона обережно вмостилася на
стільці Мелфоя. Її пальці бездумно смикали мантію в спробах надати їй такий саме
елегантний та рівний вигляд, як у мантії Драко Мелфоя...

// 12441
//“So, Miss Davis,” said Draco Malfoy. “What did you want to tell me?”
-- Отже, міс Девіс, -- сказав Драко Мелфой. -- Про що ви хотіли мені
розповісти?

// 12442
//Tracey hesitated, and then when Malfoy’s face started to look a bit impatient,
//just stammered it all out, everything Padma had said about Salazar Slytherin’s
//ghost sending Harry Potter to stop bullies and also what Daphne had told her
//about Hermione Granger being in on it -
Трейсі завагалася, та в Мелфоя на обличчі зʼявилося нетерпіння, і тоді вона
просто видала все -- все те, що Падма розказала була про привида Салазара
Слизерина, про те, як той направляє Гаррі Поттера зупиняти цькувальників, і як
Дафна пізніше розповіла їй про те, що Герміона Ґрейнджер також у цьому
замішана...

// 12443
//Draco Malfoy’s expression didn’t change at all as she spoke, not even in the
//slightest, and it dawned on Tracey with a sickening lurch in her stomach.
Драко Мелфой і бровою не повів, доки вона розповідала, -- зовсім. І тоді
раптом Трейсі стало зле.

// 12444
//“You don’t __believe__ me!” she said.
-- Ти __не віриш__ мені! -- сказала вона.

// 12445
//There was a slight pause.
Ненадовго запанувала тиша.

// 12446
//“Well,” said Draco Malfoy, with a smile that wasn’t quite as charming as his
//last one, “I __do__ believe that’s what Padma said and what Daphne said,
//so thank you anyway, Miss Davis.” The boy rose from where he’d been sitting on
//his bed, and Tracey, not even thinking, rose from the chair.
-- Ну, -- сказав Драко Мелфой уже не з такою чарівливою усмішкою, -- я __вірю__,
що ти чесно переповіла слова Падми та Дафни, отже дякую, міс Девіс.

Хлопець підвівся з ліжка, і Трейсі, цілковито бездумно, також підвелася зі
стільця.

// 12447
//As he was escorting her to the door, just as he was about to turn the knob, it
//occurred to Tracey that - “You didn’t ask what I wanted for the information,”
//she said.
Вже коли він провів її до дверей, і вона ледь не повернула дверну ручку, Трейсі
спало на думку, що...

-- Ти не спитав, чого я хочу за цю інформацію, -- сказала вона.

// 12448
//Draco Malfoy gave her some kind of look, she didn’t quite know what it was
//supposed to mean, and he didn’t say anything.
Драко Мелфой якось дивно на неї поглянув -- вона не знала, що це мало б означати,
а він не сказав ані слова.

// 12449
//“Well, anyway,” Tracey said, making an on-the-spot change to her previous
//Plans, “I __don’t__ want anything for the information, I was just being
//friendly.”
-- Ну, хай там як, -- сказала Трейсі, раптом змінивши свій попередній план,
-- я __не хочу__ нічого за цю інформацію. Просто дружньо поводжуся.

// 12450
//A brief look of surprise crossed Draco Malfoy’s face for just an instant before
//his expression flattened again and he said, “It’s not that easy to become
//friends with a Malfoy, Miss Davis.”
На лиці Драко промайнув подив, та він майже одразу опанував себе, і його обличчя
знову не видавало емоцій, коли він сказав:

-- Нелегко стати другом Мелфоя, міс Девіс.

// 12451
//Tracey smiled, and meant it. “Well, I’ll just go on being friendly, then,” she
//said, and left the room with a skip in her step, feeling like a real Slytherin
//for maybe the first time in her life, and having just decided that Draco Malfoy
//would be one of her husbands too.
Трейсі щиро всміхнулася.

// hedrok: @ skip in her step
-- Ну, я тоді просто й далі буду дружньою, -- сказала вона й вийшла з кімнати.

Вона почувалася як справжня слизеринка. Можливо, вперше за своє життя. І вона
щойно вирішила, що Драко Мелфой буде одним з її чоловіків.

***

// 12452
//After the girl was gone, Gregory came in, shut the door again and said, “Are
//you alright, Mr. Malfoy?”
Коли дівчина пішла, Ґреґорі зайшов, знову зачинив двері й сказав:

-- Усе гаразд, містере Мелфой?

// 12453
//Draco said nothing to his servant and friend. His eyes gazed off into nowhere,
//like he was trying to stare through the wall of his bedroom, through the
//Hogwarts lake that surrounded the Slytherin dungeons, through Earth’s crust and
//atmosphere and the interstellar dust of the Milky Way, into the utterly empty
//and lightless void between galaxies which no wizard and no scientist had ever
//seen.
Драко нічого не відповів своєму слузі й другу. Його очі витріщалися вдалечінь,
ніби він намагався поглянути крізь стіни своєї кімнати, крізь озеро Гоґвортсу, що
розкинулося навколо підземель Слизерину, крізь кору Землі, атмосферу та міжзоряний
порох Чумацького Шляху, і осягнути цілковиту порожнечу й темряву, що існувала між
галактиками, і якої ніколи не бачив жоден чарівник та жоден чаклун.

// 12454
//“Mr. Malfoy?” Gregory said, starting to sound a little worried.
-- Містере Мелфой? -- дещо стурбовано запитав Ґреґорі.

// 12455
//“I can’t believe I believed every word of that,” said Draco.
// hedrok: копія в 072:12709
-- Не можу повірити, що я повірив кожному її слову, -- сказав Драко.

***

// 12456
//Daphne finished her final inch of Transfiguration and looked up across the
//Slytherin common room, at where Millicent Bulstrode was still working on her
//own homework. It was time to come to a Decision.
Дафна дописала останній дюйм з трансфігурації та поглянула в інший бік вітальні
Слизерину, де Мілісент Булстроуд досі виконувала домашнє завдання. Прийшов час
прийняти Рішення.

// 12457
//If S.P.H.E.W. did go around trying to stun bullies, the bullies wouldn’t like
//it, that was certain. And they’d try to do something unpleasant about it, which
//was also certain. On the other hand, if the bullies got really nasty then
//Hermione could ask Harry Potter for help, or they could pool their combined
//Quirrell points and ask the Defense Professor for a favor… No, the thing that
//Daphne was __really__ worried about was if this business got them in bad
//with Professor Snape. You didn’t want to __ever__ end up on the wrong side
//of Professor Snape.
Якщо С.С.Р.А.Г.Ч. буде оглушати цькувальників наліво й направо, цькувальникам
це без сумніву не надто сподобається. І вони з цього приводу спробують зробити
щось неприємне, це теж не підлягало сумнівам. З іншого боку, якщо хулігани вчинять
щось справді страшне, Герміона може попросити Гаррі Поттера про допомогу, або вони
можуть використати всі свої спільні бали Квірела й попросити професора із захисту
про послугу... Ні, __насправді__ Дафну хвилювало лише одне: чи не справить
це все погане враження на професора Снейпа. __Завжди__ треба піклуватися про
хороші стосунки з професором Снейпом.

// 12458
//But since the day she’d challenged Neville to a Most Ancient Duel, she’d
//noticed people looking at her differently. Even the Slytherins who’d made fun
//of her were looking at her differently. It was dawning on Daphne that being the
//daughter of the Noble and Most Ancient House of Greengrass brought in a
//__lot__ more respect if you were a beautiful __heroine__ born to a
//Most Ancient House, and not just a pretty noble girl. It was the difference
//between having your role played by the lead actress and having your role played
//by a two-Galleon extra with a screechy laugh.
Та відколи вона кинула виклик Невілові на найдавнішу дуель, вона помітила, що
люди почали сприймати її інакше. Навіть слизеринці, що спочатку кепкували з
неї, сприймали її інакше. І раптом Дафна збагнула, що бути донькою шляхетного й
найдавнішого роду Ґрінґрас викликало __значно__ більше поваги, якщо ти крім
того ще й вродлива __героїня__, що народилася в найдавнішому роді, а не просто
красива шляхетна дівчинка. Це скидалося на різницю між виконанням ролі провідною
актрисою та виконанням ролі за два ґалеони випадковою людиною з огидним
сміхом.

// 12459
//Fighting bullies might not be the __best__ way to become a heroine. But
//Father had once told her that the trouble with passing up opportunities was
//that it was habit-forming. If you told yourself you were waiting for a better
//opportunity next time, why, next time you’d probably tell yourself the same
//thing. Father had said that most people spent their whole __lives__
//waiting for an opportunity that was good enough, and then they died. Father had
//said that while seizing opportunities __would__ mean that all sorts of
//things went wrong, it wasn’t nearly as bad as being a hopeless lump. Father had
//said that __after__ she got into the habit of seizing opportunities,
//__then__ it was time to start being picky about them.
Боротьба з цькувальниками, можливо, не __найкращий__ метод стати героїнею. Та
батько якось сказав їй, що ігнорування можливостей легко стає звичкою. Якщо ти казав
собі, що чекаєш на кращу можливість, то, ну, коли у тебе зʼявиться нова можливість,
ти напевно скажеш собі те саме. Батько казав був, що більшість людей __усе життя__
чекають на достатньо хорошу можливість, а потім вони помирають. Батько казав був,
що хапання всіх можливостей __призведе__ до всіляких халеп, та це не настільки погано,
як бути безнадійним тюхтієм. Батько казав був, що __після__ утворення звички користуватися
можливостями можна __починати__ ігнорувати якісь із них.

// 12460
//On the other hand, Mother had warned her not to take all of Father’s advice,
//and said that Daphne wasn’t allowed to ask about Father’s sixth year in
//Hogwarts until she was at least thirty years old.
З іншого боку матір попереджала її не дослухатися всіх порад батька, і сказала,
що Дафні заборонено питати про шостий рік батька в Гоґвортсі, доки їй не
виповниться тридцять.

// 12461
//But in the end Father __had__ gotten Mother to marry him and successfully
//plotted his way into a Most Ancient House, so there __was__ that.
Та зрештою в батька __вийшло__ одружитися з матірʼю, і він успішно став частиною
найдавнішого роду, це був __факт__.

// 12462
//Millicent Bulstrode finished her homework and began putting her things away.
Мілісент Булстроуд завершила з домашнім завданням та почала збирати речі.

// 12463
//Daphne stood up from her desk, and walked over.
Дафна підвелася з-за стола й підійшла до неї.

// 12464
//Millicent swung out her legs from the table and stood up, slinging her bookbag
//over one shoulder, then looked over at where Daphne was approaching, the girl’s
//expression puzzled.
Мілісент опустила ноги зі столу й підвелася, закинувши сумку на плече, а тоді
здивовано подивилися на Дафну, що наближалася.

// 12465
//“Hey, Millicent,” Daphne said as she drew near, making her voice low and
//excited, “guess what I figured out today?”
-- Привіт, Мілісент, -- тихо й захоплено сказала Дафна, коли наблизилася, --
уявляєш, що я сьогодні збагнула?

// 12466
//“The thing about Salazar Slytherin’s ghost helping Granger?” said Millicent. “I
//already heard about that -”
-- Про те, що привид Салазара Слизерина допомагає Ґрейнджер? Я вже чула...

// 12467
//“No,” Daphne said in a hushed whisper, “this is even __better.__”
-- Ні, -- прошепотіла Дафна, -- це навіть __цікавіше__.

// 12468
//“Really?” Millicent said, in an equally low excited voice. “What is it?”
-- Справді? -- запитала Мілісент не менш тихо й захоплено. -- Розповідай!

// 12469
//Daphne looked around conspiratorially. “Come to my room and I’ll tell you.”
Дафна змовницьки роззирнулася.

-- Ходімо до моєї кімнати, розповім.

// 12470
//They went off toward the stairs that led downward, the private rooms were even
//lower in the lake than the seventh-year dorms…
Вони пішли до сходів униз -- особисті кімнати були навіть нижче за спальні
семикласників...

// 12471
//Soon enough Daphne was sitting in her comfy desk-chair and Millicent had
//bounced over to the edge of her bed.
Невдовзі Дафна сиділа в своєму зручному стільці, а Мілісент підстрибувала на
краю її ліжка.

// 12472
//“__Quietus,__” said Daphne, when they were both seated; and then instead
//of putting her wand away inside her robes, Daphne just let her hand fall
//naturally down to her side, still holding the wand, just in case.
-- __Квіетус__, -- сказала Дафна, коли вони вже сиділи.

Та замість того, щоб сховати паличку в мантії, Дафна природно опустила руку
й залишила паличку -- про всяк випадок.

// 12473
//“All __right!__” said Millicent. “What __is__ it?”
-- Ну __гаразд__! -- сказала Мілісент. -- __Розповідай__ уже!

// 12474
//“You know what I figured out?” said Daphne. “I figured out that you get the
//gossip __so__ fast, you know about things __before they actually
//happen__.”
-- Знаєш, що я збагнула? Я збагнула, що ти дізнаєшся про новини __так__ швидко,
що ти знаєш про події __перед тим, як вони відбуваються__.

// 12475
//Daphne had half-expected Millicent to turn white and fall over, and she didn’t
//really, but the girl did flinch pretty hard before she started stammering
//denials.
Дафна була готова до того, що Мілісент пополотніє та знепритомніє, чого вона
насправді не зробила, та дівчина явно сильно здригнулася перед тим, як починати
все заперечувати.

// 12476
//“Don’t worry,” said Daphne with her sweetest smile, “I won’t tell anyone else
//you’re a seer. I mean, we’re friends, right?”
-- Не хвилюйся, -- з найсолодкішою з можливих усмішкою сказала Дафна. -- Я нікому
не розповім, що ти провидиця. Тобто, ми ж друзі, правда?

***

// 12477
//Rianne Felthorne, seventh-year of Slytherin, was working diligently on yet
//another two-foot essay (she was taking everything except Divination and Muggle
//Studies and her N.E.W.T. year seemed to consist __entirely__ of homework)
//when her Head of House strode up to the table she was working at and barked
//“You will come with me, Miss Felthorne!” and walked away even as she
//frantically began putting away her parchment and book and quill.
Ріанне Фелторн, семикласниця зі Слизерину, старанно працювала над черговим
двофутовим рефератом (вона відвідувала всі заняття, крім віщування та маґлознавства,
тож її випускний рік складався __лише__ з домашніх завдань), коли її вихователь
гуртожитку широким кроком підійшов до її столу й гримнув:

-- За мною, міс Фелторн!

Та пішов геть, не чекаючи навіть, доки вона складе пергамент, книжку та перо.

// 12478
//When she caught up with Professor Snape, he was waiting just outside the room
//and gazing at her with half-lidded eyes that seemed far too intense; and before
//she could ask what this was about he spun without a word and stalked off
//through the hallways, so that she had to scramble to keep up.
Коли вона наздогнала професора Снейпа, він чекав за кімнатою та споглядав за
нею напівпримруженими очима якось надто зосереджено. Не встигла вона нічого
спитати, як він мовчки крутнувся й пішов коридорами, тож вона поспіхом пішла
за ним.

// 12479
//Their walk took them down a flight of stairs, and then another, below what
//she’d thought was the lowest level of the Slytherin dungeons. And the corridors
//began to look older in their appearance, the architecture reverting back in
//time by centuries into roughened stone held together by crude-looking mortar.
//She began to wonder if Professor Snape was taking her to the __real__
//dungeons that she’d heard rumors of, the true dungeons of Hogwarts that had
//been sealed off to all but faculty; and if maybe Professor Snape did terrible
//things down there to innocent helpless young girls but that was probably just
//wishful thinking on her part.
Вони спустилися маршем сходів, потім ще одним, нижче за, як їй здавалося, найнижчі
рівні підземель Слизерину. Коридори набули справді старовинного вигляду -- архітектура
повернулася в часі на століття, стіни були з неотесаного каменю, який зʼєднував
грубий на вигляд будівельний розчин. Їй спало на думку, чи бува професор Снейп
не веде її до __справжніх__ підземель, про які ходили чутки, -- підземель Гоґвортсу,
що були закриті для всіх, крім викладачів. І, можливо, професор Снейп там чинив
жахливі речі з невинними безпомічними молодими дівчатами, та це вона певно
просто розмріялася.

// 12480
//They went down another flight of stairs, and came out into a room that was no
//room at all, but an empty rock cavern with a single door, pierced by many dark
//openings and lit by a single torch of ancient style that fired as they entered.
Вони спустилися ще одним маршем сходів та прийшли до кімнати, що її складно
було назвати кімнатою -- просто порожня печера з єдиними дверима. Печеру
пронизували темні щілини. Її освітлював один старовинного вигляду смолоскип, що
запалав, щойно вони ввійшли.

// 12481
//Professor Snape took out his wand, then, and began to cast Charm after Charm,
//she lost track of how many; and when the Potions Master was done he turned back
//toward her, locked his intense eyes on hers, and said in a level voice unlike
//his usual drawl, “You will say nothing to anyone of this matter, Miss
//Felthorne, nothing now or ever. If that is acceptable to you, nod. If not, we
//will turn and go.”
Професор Снейп дістав паличку й почав застосовувати чари за чарами, вона збилася
з ліку як багато чарів він вимовив. Коли майстер зіль завершив з цим, він повернувся
до неї обличчям та подивився їй прямо в очі. І сказав рівним голосом, що зовсім не
нагадував його звичну протяжну вимову.

-- Ви не згадуватиме про цю справу нікому, міс Фелторн. Ані зараз, ані потім. Якщо
це прийнятно, кивніть. Якщо ні, ми повертаємося.

// 12482
//She nodded, frightened and with a strange hope dawning in her heart (well, not
//exactly her heart).
Вона трохи налякано кивнула. Дивна надія зародилася в її серці (ну, не зовсім
серці).

// 12483
//“The task I have for you is very simple, Miss Felthorne,” said Professor
//Snape’s toneless voice, “and your extremely generous pay of fifty Galleons is
//merely to compensate you for being Memory-Charmed afterward.”
-- У мене є для вас дуже просте завдання, міс Фелторн, -- безбарвно сказав
професор Снейп, -- і надзвичайно щедра оплата в пʼятдесят ґалеонів лише компенсує
потребу в заклятті памʼяті після виконання.

// 12484
//She drew an involuntary breath. Her family might be rich but they had other
//daughters and kept her on a tight leash and it was certainly a lot of money for
//__her__.
Вона мимоволі затамувала подих. Може її родина й була багатою, та в неї були
сестри, і її тримали на короткому повідці. Для __неї__ це точно була купа
грошей.

// 12485
//Then her ears caught up with the words __Memory-Charmed__ and for a moment
//she felt outraged, there was no point if she couldn’t keep the memories, what
//sort of girl did Professor Snape think she __was?__
А тоді вона сприйняла слова "`закляття памʼяті`" і на мить вона розлютилася, бо
який в цьому сенс, якщо вона нічого не памʼятатиме, __за кого__ професор Снейп
її має?

// 12486
//“You surely know,” said Severus Snape, “of Miss Hermione Granger, the Sunshine
//General?”
-- Ви безсумнівно чули, -- сказав Северус Снейп, -- про міс Герміону Ґрейнджер,
генерала Сонечка?

// 12487
//“__What?__” said Rianne Felthorne in sudden horror and disgust. “She’s in
//her __first year!__ __Ew!__”
-- __Що?__ -- з раптовим жахом та огидою скрикнула Ріанне Фелторн. -- Вона ж
у __першому класі__! __Фу!__
